\relax 
\providecommand\hyper@newdestlabel[2]{}
\@writefile{toc}{\contentsline {chapter}{\numberline {B}Project Documentation}{16}{appendix.B}}
\@writefile{lof}{\addvspace {10\p@ }}
\@writefile{lot}{\addvspace {10\p@ }}
\newlabel{appendixB}{{B}{16}{Project Documentation}{appendix.B}{}}
\@writefile{toc}{\contentsline {section}{\numberline {B.1}Vision Document}{16}{section.B.1}}
\newlabel{appendixB_vision}{{B.1}{16}{Vision Document}{section.B.1}{}}
\@writefile{toc}{\contentsline {section}{\numberline {B.2}Along Documentation}{44}{section.B.2}}
\newlabel{appendixB_along}{{B.2}{44}{Along Documentation}{section.B.2}{}}
\@writefile{toc}{\contentsline {subsection}{\numberline {B.2.1}Requirements Document}{44}{subsection.B.2.1}}
\newlabel{appendixB_along_requirements}{{B.2.1}{44}{Requirements Document}{subsection.B.2.1}{}}
\@writefile{toc}{\contentsline {subsection}{\numberline {B.2.2}Software Architecture Document}{61}{subsection.B.2.2}}
\newlabel{appendixB_along_architecture}{{B.2.2}{61}{Software Architecture Document}{subsection.B.2.2}{}}
\@writefile{toc}{\contentsline {subsection}{\numberline {B.2.3}Software Design Document}{72}{subsection.B.2.3}}
\newlabel{appendixB_along_design}{{B.2.3}{72}{Software Design Document}{subsection.B.2.3}{}}
\@writefile{toc}{\contentsline {subsection}{\numberline {B.2.4}Test Document}{85}{subsection.B.2.4}}
\newlabel{appendixB_along_test}{{B.2.4}{85}{Test Document}{subsection.B.2.4}{}}
\@writefile{toc}{\contentsline {section}{\numberline {B.3}Permanent Documentation}{107}{section.B.3}}
\newlabel{appendixB_permanent}{{B.3}{107}{Permanent Documentation}{section.B.3}{}}
\@writefile{toc}{\contentsline {subsection}{\numberline {B.3.1}Operating Document}{107}{subsection.B.3.1}}
\newlabel{appendixB_permanent_operating}{{B.3.1}{107}{Operating Document}{subsection.B.3.1}{}}
\@writefile{toc}{\contentsline {subsection}{\numberline {B.3.2}System Document}{107}{subsection.B.3.2}}
\newlabel{appendixB_permanent_system}{{B.3.2}{107}{System Document}{subsection.B.3.2}{}}
\@writefile{toc}{\contentsline {subsection}{\numberline {B.3.3}User Document}{107}{subsection.B.3.3}}
\newlabel{appendixB_permanent_system}{{B.3.3}{107}{User Document}{subsection.B.3.3}{}}
\@writefile{toc}{\contentsline {section}{\numberline {B.4}Project Manual}{107}{section.B.4}}
\newlabel{appendixB_manual}{{B.4}{107}{Project Manual}{section.B.4}{}}
\@writefile{toc}{\contentsline {subsection}{\numberline {B.4.1}Progress Overview}{107}{subsection.B.4.1}}
\newlabel{appendixB_manual_overview}{{B.4.1}{107}{Progress Overview}{subsection.B.4.1}{}}
\@writefile{toc}{\contentsline {subsection}{\numberline {B.4.2}Contracts}{107}{subsection.B.4.2}}
\newlabel{appendixB_manual_contracts}{{B.4.2}{107}{Contracts}{subsection.B.4.2}{}}
\@writefile{toc}{\contentsline {subsection}{\numberline {B.4.3}Timesheet}{107}{subsection.B.4.3}}
\newlabel{appendixB_manual_timesheet}{{B.4.3}{107}{Timesheet}{subsection.B.4.3}{}}
\@writefile{toc}{\contentsline {subsection}{\numberline {B.4.4}Week Reports}{134}{subsection.B.4.4}}
\newlabel{appendixB_manual_weekreports}{{B.4.4}{134}{Week Reports}{subsection.B.4.4}{}}
\@writefile{toc}{\contentsline {subsection}{\numberline {B.4.5}Meetings}{145}{subsection.B.4.5}}
\newlabel{appendixB_manual_meetings}{{B.4.5}{145}{Meetings}{subsection.B.4.5}{}}
\@writefile{toc}{\contentsline {subsubsection}{1st Meeting - Invitation}{145}{subsection.B.4.5}}
\newlabel{appendixB_manual_meeting1_invitation}{{B.4.5}{145}{1st Meeting - Invitation}{subsection.B.4.5}{}}
\@writefile{toc}{\contentsline {subsubsection}{1st Meeting - Minute}{155}{subsection.B.4.5}}
\newlabel{appendixB_manual_meeting1_minute}{{B.4.5}{155}{1st Meeting - Minute}{subsection.B.4.5}{}}
\@writefile{toc}{\contentsline {subsubsection}{2nd Meeting - Invitation}{163}{subsection.B.4.5}}
\newlabel{appendixB_manual_meeting2_invitation}{{B.4.5}{163}{2nd Meeting - Invitation}{subsection.B.4.5}{}}
\@writefile{toc}{\contentsline {subsubsection}{2nd Meeting - Minute}{165}{subsection.B.4.5}}
\newlabel{appendixB_manual_meeting2_minute}{{B.4.5}{165}{2nd Meeting - Minute}{subsection.B.4.5}{}}
\@writefile{toc}{\contentsline {subsubsection}{3rd Meeting - Invitation}{169}{subsection.B.4.5}}
\newlabel{appendixB_manual_meeting3_invitation}{{B.4.5}{169}{3rd Meeting - Invitation}{subsection.B.4.5}{}}
\@writefile{toc}{\contentsline {subsubsection}{3rd Meeting - Minute}{171}{subsection.B.4.5}}
\newlabel{appendixB_manual_meeting3_minute}{{B.4.5}{171}{3rd Meeting - Minute}{subsection.B.4.5}{}}
\@writefile{toc}{\contentsline {subsubsection}{4th Meeting - Invitation}{175}{subsection.B.4.5}}
\@writefile{toc}{\contentsline {subsubsection}{4th Meeting - Minute}{175}{subsection.B.4.5}}
\@writefile{toc}{\contentsline {subsubsection}{5th Meeting - Invitation}{175}{subsection.B.4.5}}
\@writefile{toc}{\contentsline {subsubsection}{5th Meeting - Minute}{175}{subsection.B.4.5}}
\@writefile{toc}{\contentsline {subsubsection}{6th Meeting - Invitation}{175}{subsection.B.4.5}}
\@writefile{toc}{\contentsline {subsubsection}{6th Meeting - Minute}{175}{subsection.B.4.5}}
\@writefile{toc}{\contentsline {subsubsection}{7th Meeting - Invitation}{175}{subsection.B.4.5}}
\@writefile{toc}{\contentsline {subsubsection}{7th Meeting - Minute}{175}{subsection.B.4.5}}
\@setckpt{appendix-b}{
\setcounter{page}{176}
\setcounter{equation}{0}
\setcounter{enumi}{4}
\setcounter{enumii}{0}
\setcounter{enumiii}{0}
\setcounter{enumiv}{0}
\setcounter{footnote}{0}
\setcounter{mpfootnote}{0}
\setcounter{part}{0}
\setcounter{chapter}{2}
\setcounter{section}{4}
\setcounter{subsection}{5}
\setcounter{subsubsection}{0}
\setcounter{paragraph}{0}
\setcounter{subparagraph}{0}
\setcounter{figure}{0}
\setcounter{table}{0}
\setcounter{r@tfl@t}{1}
\setcounter{parentequation}{0}
\setcounter{NAT@ctr}{0}
\setcounter{Item}{4}
\setcounter{Hfootnote}{2}
\setcounter{bookmark@seq@number}{40}
\setcounter{AM@survey}{0}
\setcounter{float@type}{4}
\setcounter{ContinuedFloat}{0}
\setcounter{section@level}{0}
}
