\relax 
\providecommand\hyper@newdestlabel[2]{}
\@writefile{toc}{\contentsline {chapter}{\numberline {C}Along Documentation}{44}{appendix.C}}
\@writefile{lof}{\addvspace {10\p@ }}
\@writefile{lot}{\addvspace {10\p@ }}
\newlabel{appendixC}{{C}{44}{Along Documentation}{appendix.C}{}}
\@writefile{toc}{\contentsline {section}{\numberline {C.1}Requirements Document}{44}{section.C.1}}
\@writefile{toc}{\contentsline {section}{\numberline {C.2}Software Architecture Document}{61}{section.C.2}}
\@writefile{toc}{\contentsline {section}{\numberline {C.3}Software Design Document}{72}{section.C.3}}
\@writefile{toc}{\contentsline {section}{\numberline {C.4}Test Document}{85}{section.C.4}}
\@setckpt{appendix-c}{
\setcounter{page}{107}
\setcounter{equation}{0}
\setcounter{enumi}{4}
\setcounter{enumii}{0}
\setcounter{enumiii}{0}
\setcounter{enumiv}{0}
\setcounter{footnote}{0}
\setcounter{mpfootnote}{0}
\setcounter{part}{0}
\setcounter{chapter}{3}
\setcounter{section}{4}
\setcounter{subsection}{0}
\setcounter{subsubsection}{0}
\setcounter{paragraph}{0}
\setcounter{subparagraph}{0}
\setcounter{figure}{0}
\setcounter{table}{0}
\setcounter{r@tfl@t}{1}
\setcounter{parentequation}{0}
\setcounter{NAT@ctr}{0}
\setcounter{Item}{4}
\setcounter{Hfootnote}{2}
\setcounter{bookmark@seq@number}{29}
\setcounter{AM@survey}{0}
\setcounter{float@type}{4}
\setcounter{ContinuedFloat}{0}
\setcounter{section@level}{1}
}
