\relax 
\providecommand\hyper@newdestlabel[2]{}
\@writefile{toc}{\contentsline {chapter}{\numberline {1}Introduction}{2}{chapter.1}}
\@writefile{lof}{\addvspace {10\p@ }}
\@writefile{lot}{\addvspace {10\p@ }}
\@writefile{toc}{\contentsline {section}{\numberline {1.1}Background}{2}{section.1.1}}
\citation{lundteigen08}
\citation{rausand14}
\citation{rausand04}
\citation{rausand04}
\@writefile{toc}{\contentsline {section}{\numberline {1.2}Objectives}{4}{section.1.2}}
\@writefile{toc}{\contentsline {section}{\numberline {1.3}Limitations}{4}{section.1.3}}
\@writefile{toc}{\contentsline {section}{\numberline {1.4}Approach}{4}{section.1.4}}
\@writefile{toc}{\contentsline {section}{\numberline {1.5}Structure of the Report}{5}{section.1.5}}
\@setckpt{chapter01}{
\setcounter{page}{6}
\setcounter{equation}{0}
\setcounter{enumi}{4}
\setcounter{enumii}{0}
\setcounter{enumiii}{0}
\setcounter{enumiv}{0}
\setcounter{footnote}{1}
\setcounter{mpfootnote}{0}
\setcounter{part}{0}
\setcounter{chapter}{1}
\setcounter{section}{5}
\setcounter{subsection}{0}
\setcounter{subsubsection}{0}
\setcounter{paragraph}{0}
\setcounter{subparagraph}{0}
\setcounter{figure}{0}
\setcounter{table}{0}
\setcounter{r@tfl@t}{0}
\setcounter{parentequation}{0}
\setcounter{NAT@ctr}{0}
\setcounter{Item}{4}
\setcounter{Hfootnote}{1}
\setcounter{bookmark@seq@number}{10}
\setcounter{AM@survey}{0}
\setcounter{float@type}{4}
\setcounter{ContinuedFloat}{0}
\setcounter{section@level}{0}
}
