\BOOKMARK [1][-]{Doc-Start}{Preface}{}% 1
\BOOKMARK [1][-]{Doc-Start}{Acknowledgment}{}% 2
\BOOKMARK [1][-]{Doc-Start}{Project Description}{}% 3
\BOOKMARK [1][-]{Doc-Start}{Summary and Conclusions}{}% 4
\BOOKMARK [0][-]{chapter.1}{Introduction}{}% 5
\BOOKMARK [1][-]{section.1.1}{Background}{chapter.1}% 6
\BOOKMARK [1][-]{section.1.2}{Objectives}{chapter.1}% 7
\BOOKMARK [1][-]{section.1.3}{Limitations}{chapter.1}% 8
\BOOKMARK [1][-]{section.1.4}{Approach}{chapter.1}% 9
\BOOKMARK [1][-]{section.1.5}{Structure of the Report}{chapter.1}% 10
\BOOKMARK [0][-]{chapter.2}{Introduction to Cryptography}{}% 11
\BOOKMARK [1][-]{section.2.1}{Simple Equations}{chapter.2}% 12
\BOOKMARK [1][-]{section.2.2}{Including Figures}{chapter.2}% 13
\BOOKMARK [1][-]{section.2.3}{Including Tables}{chapter.2}% 14
\BOOKMARK [1][-]{section.2.4}{Copying Figures and Tables}{chapter.2}% 15
\BOOKMARK [1][-]{section.2.5}{References to Figures and Tables}{chapter.2}% 16
\BOOKMARK [1][-]{section.2.6}{A Word About Font-encoding}{chapter.2}% 17
\BOOKMARK [1][-]{section.2.7}{Plagiarism}{chapter.2}% 18
\BOOKMARK [0][-]{chapter.3}{Summary}{}% 19
\BOOKMARK [1][-]{section.3.1}{Summary and Conclusions}{chapter.3}% 20
\BOOKMARK [1][-]{section.3.2}{Discussion}{chapter.3}% 21
\BOOKMARK [1][-]{section.3.3}{Recommendations for Further Work}{chapter.3}% 22
\BOOKMARK [0][-]{appendix.A}{Acronyms}{}% 23
\BOOKMARK [0][-]{appendix.B}{Project Documentation}{}% 24
\BOOKMARK [1][-]{section.B.1}{Vision Document}{appendix.B}% 25
\BOOKMARK [1][-]{section.B.2}{Along Documentation}{appendix.B}% 26
\BOOKMARK [2][-]{subsection.B.2.1}{Requirements Document}{section.B.2}% 27
\BOOKMARK [2][-]{subsection.B.2.2}{Software Architecture Document}{section.B.2}% 28
\BOOKMARK [2][-]{subsection.B.2.3}{Software Design Document}{section.B.2}% 29
\BOOKMARK [2][-]{subsection.B.2.4}{Test Document}{section.B.2}% 30
\BOOKMARK [1][-]{section.B.3}{Permanent Documentation}{appendix.B}% 31
\BOOKMARK [2][-]{subsection.B.3.1}{Operating Document}{section.B.3}% 32
\BOOKMARK [2][-]{subsection.B.3.2}{System Document}{section.B.3}% 33
\BOOKMARK [2][-]{subsection.B.3.3}{User Document}{section.B.3}% 34
\BOOKMARK [1][-]{section.B.4}{Project Manual}{appendix.B}% 35
\BOOKMARK [2][-]{subsection.B.4.1}{Progress Overview}{section.B.4}% 36
\BOOKMARK [2][-]{subsection.B.4.2}{Contracts}{section.B.4}% 37
\BOOKMARK [2][-]{subsection.B.4.3}{Timesheet}{section.B.4}% 38
\BOOKMARK [2][-]{subsection.B.4.4}{Week Reports}{section.B.4}% 39
\BOOKMARK [2][-]{subsection.B.4.5}{Meetings}{section.B.4}% 40
\BOOKMARK [0][-]{subsection.B.4.5}{Bibliography}{}% 41
\BOOKMARK [0][-]{appendix*.7}{Curriculum Vitae}{}% 42
