\relax 
\providecommand\hyper@newdestlabel[2]{}
\@writefile{toc}{\contentsline {chapter}{\numberline {2}Background and Overview}{5}{chapter.2}}
\@writefile{lof}{\addvspace {10\p@ }}
\@writefile{lot}{\addvspace {10\p@ }}
\newlabel{architecture-background-and-overview}{{2}{5}{Background and Overview}{chapter.2}{}}
\@writefile{toc}{\contentsline {section}{\numberline {2.1}Use Case Model}{5}{section.2.1}}
\newlabel{architecture-section:2.1}{{2.1}{5}{Use Case Model}{section.2.1}{}}
\@writefile{toc}{\contentsline {subsection}{\numberline {2.1.1}Encrypt Data}{5}{subsection.2.1.1}}
\newlabel{architecture-section:2.1.1}{{2.1.1}{5}{Encrypt Data}{subsection.2.1.1}{}}
\@writefile{lof}{\contentsline {figure}{\numberline {2.1}{\ignorespaces Use Case for Data Encryption\relax }}{5}{figure.caption.5}}
\newlabel{architecture-figure:2.1}{{2.1}{5}{Use Case for Data Encryption\relax }{figure.caption.5}{}}
\@writefile{toc}{\contentsline {subsection}{\numberline {2.1.2}Decrypt Data}{6}{subsection.2.1.2}}
\newlabel{architecture-section:2.1.2}{{2.1.2}{6}{Decrypt Data}{subsection.2.1.2}{}}
\@writefile{lof}{\contentsline {figure}{\numberline {2.2}{\ignorespaces Use Case for Data Decryption\relax }}{6}{figure.caption.6}}
\newlabel{architecture-figure:2.2}{{2.2}{6}{Use Case for Data Decryption\relax }{figure.caption.6}{}}
\@writefile{toc}{\contentsline {section}{\numberline {2.2}Non-Functional Requirements}{6}{section.2.2}}
\newlabel{architecture-section:2.2}{{2.2}{6}{Non-Functional Requirements}{section.2.2}{}}
\@writefile{toc}{\contentsline {section}{\numberline {2.3}Assumptions and Dependencies}{6}{section.2.3}}
\newlabel{architecture-section:2.3}{{2.3}{6}{Assumptions and Dependencies}{section.2.3}{}}
\@setckpt{architecture-chap02}{
\setcounter{page}{7}
\setcounter{equation}{0}
\setcounter{enumi}{7}
\setcounter{enumii}{0}
\setcounter{enumiii}{0}
\setcounter{enumiv}{0}
\setcounter{footnote}{0}
\setcounter{mpfootnote}{0}
\setcounter{part}{0}
\setcounter{chapter}{2}
\setcounter{section}{3}
\setcounter{subsection}{0}
\setcounter{subsubsection}{0}
\setcounter{paragraph}{0}
\setcounter{subparagraph}{0}
\setcounter{figure}{2}
\setcounter{table}{0}
\setcounter{r@tfl@t}{0}
\setcounter{parentequation}{0}
\setcounter{NAT@ctr}{0}
\setcounter{Item}{7}
\setcounter{Hfootnote}{0}
\setcounter{bookmark@seq@number}{13}
\setcounter{float@type}{4}
\setcounter{ContinuedFloat}{0}
\setcounter{section@level}{1}
}
