\relax 
\providecommand\hyper@newdestlabel[2]{}
\@writefile{toc}{\contentsline {chapter}{\numberline {3}Architecture Description}{7}{chapter.3}}
\@writefile{lof}{\addvspace {10\p@ }}
\@writefile{lot}{\addvspace {10\p@ }}
\newlabel{architecture-architecture-description}{{3}{7}{Architecture Description}{chapter.3}{}}
\@writefile{toc}{\contentsline {section}{\numberline {3.1}Logical Perspective}{7}{section.3.1}}
\newlabel{architecture-section:3.1}{{3.1}{7}{Logical Perspective}{section.3.1}{}}
\@writefile{toc}{\contentsline {section}{\numberline {3.2}Process Perspective}{7}{section.3.2}}
\newlabel{architecture-section:3.2}{{3.2}{7}{Process Perspective}{section.3.2}{}}
\@writefile{toc}{\contentsline {section}{\numberline {3.3}Deployment Perspective}{7}{section.3.3}}
\newlabel{architecture-section:3.3}{{3.3}{7}{Deployment Perspective}{section.3.3}{}}
\@writefile{toc}{\contentsline {section}{\numberline {3.4}Implementation Perspective}{8}{section.3.4}}
\newlabel{architecture-section:3.4}{{3.4}{8}{Implementation Perspective}{section.3.4}{}}
\@writefile{toc}{\contentsline {section}{\numberline {3.5}Other Perspectives}{8}{section.3.5}}
\newlabel{architecture-section:3.5}{{3.5}{8}{Other Perspectives}{section.3.5}{}}
\@setckpt{architecture-chap03}{
\setcounter{page}{9}
\setcounter{equation}{0}
\setcounter{enumi}{7}
\setcounter{enumii}{0}
\setcounter{enumiii}{0}
\setcounter{enumiv}{0}
\setcounter{footnote}{0}
\setcounter{mpfootnote}{0}
\setcounter{part}{0}
\setcounter{chapter}{3}
\setcounter{section}{5}
\setcounter{subsection}{0}
\setcounter{subsubsection}{0}
\setcounter{paragraph}{0}
\setcounter{subparagraph}{0}
\setcounter{figure}{0}
\setcounter{table}{0}
\setcounter{r@tfl@t}{0}
\setcounter{parentequation}{0}
\setcounter{NAT@ctr}{0}
\setcounter{Item}{7}
\setcounter{Hfootnote}{0}
\setcounter{bookmark@seq@number}{19}
\setcounter{float@type}{4}
\setcounter{ContinuedFloat}{0}
\setcounter{section@level}{1}
}
