\relax 
\providecommand\hyper@newdestlabel[2]{}
\@writefile{toc}{\contentsline {chapter}{\numberline {7}Test Subject Report}{14}{chapter.7}}
\@writefile{lof}{\addvspace {10\p@ }}
\@writefile{lot}{\addvspace {10\p@ }}
\newlabel{test-test-subject-report}{{7}{14}{Test Subject Report}{chapter.7}{}}
\@writefile{toc}{\contentsline {section}{\numberline {7.1}Identifier}{14}{section.7.1}}
\newlabel{test-section:7.1}{{7.1}{14}{Identifier}{section.7.1}{}}
\@writefile{toc}{\contentsline {section}{\numberline {7.2}Items Ready for Testing}{14}{section.7.2}}
\newlabel{test-section:7.2}{{7.2}{14}{Items Ready for Testing}{section.7.2}{}}
\@writefile{toc}{\contentsline {section}{\numberline {7.3}Where to Obtain Module?}{14}{section.7.3}}
\newlabel{test-section:7.3}{{7.3}{14}{Where to Obtain Module?}{section.7.3}{}}
\@writefile{toc}{\contentsline {section}{\numberline {7.4}Approval}{14}{section.7.4}}
\newlabel{test-section:7.4}{{7.4}{14}{Approval}{section.7.4}{}}
\@setckpt{test-chap07}{
\setcounter{page}{15}
\setcounter{equation}{0}
\setcounter{enumi}{7}
\setcounter{enumii}{0}
\setcounter{enumiii}{0}
\setcounter{enumiv}{0}
\setcounter{footnote}{0}
\setcounter{mpfootnote}{0}
\setcounter{part}{0}
\setcounter{chapter}{7}
\setcounter{section}{4}
\setcounter{subsection}{0}
\setcounter{subsubsection}{0}
\setcounter{paragraph}{0}
\setcounter{subparagraph}{0}
\setcounter{figure}{0}
\setcounter{table}{0}
\setcounter{r@tfl@t}{0}
\setcounter{parentequation}{0}
\setcounter{NAT@ctr}{0}
\setcounter{Item}{7}
\setcounter{Hfootnote}{0}
\setcounter{bookmark@seq@number}{49}
\setcounter{float@type}{4}
\setcounter{ContinuedFloat}{0}
\setcounter{section@level}{1}
}
