\relax 
\providecommand\hyper@newdestlabel[2]{}
\@writefile{toc}{\contentsline {chapter}{\numberline {10}Test Summary Report}{17}{chapter.10}}
\@writefile{lof}{\addvspace {10\p@ }}
\@writefile{lot}{\addvspace {10\p@ }}
\newlabel{test-test-summary-report}{{10}{17}{Test Summary Report}{chapter.10}{}}
\@writefile{toc}{\contentsline {section}{\numberline {10.1}Identifier}{17}{section.10.1}}
\newlabel{test-section:10.1}{{10.1}{17}{Identifier}{section.10.1}{}}
\@writefile{toc}{\contentsline {section}{\numberline {10.2}Summary}{17}{section.10.2}}
\newlabel{test-section:10.2}{{10.2}{17}{Summary}{section.10.2}{}}
\@writefile{toc}{\contentsline {section}{\numberline {10.3}Deviation}{17}{section.10.3}}
\newlabel{test-section:10.3}{{10.3}{17}{Deviation}{section.10.3}{}}
\@writefile{toc}{\contentsline {section}{\numberline {10.4}Assessment of Coverage}{17}{section.10.4}}
\newlabel{test-section:10.4}{{10.4}{17}{Assessment of Coverage}{section.10.4}{}}
\@writefile{toc}{\contentsline {section}{\numberline {10.5}Summary of Results}{18}{section.10.5}}
\newlabel{test-section:10.5}{{10.5}{18}{Summary of Results}{section.10.5}{}}
\@writefile{toc}{\contentsline {section}{\numberline {10.6}Evaluation}{18}{section.10.6}}
\newlabel{test-section:10.6}{{10.6}{18}{Evaluation}{section.10.6}{}}
\@writefile{toc}{\contentsline {section}{\numberline {10.7}Summary of Activities}{18}{section.10.7}}
\newlabel{test-section:10.7}{{10.7}{18}{Summary of Activities}{section.10.7}{}}
\@writefile{toc}{\contentsline {section}{\numberline {10.8}Approval}{18}{section.10.8}}
\newlabel{test-section:10.8}{{10.8}{18}{Approval}{section.10.8}{}}
\@setckpt{test-chap10}{
\setcounter{page}{19}
\setcounter{equation}{0}
\setcounter{enumi}{7}
\setcounter{enumii}{0}
\setcounter{enumiii}{0}
\setcounter{enumiv}{0}
\setcounter{footnote}{0}
\setcounter{mpfootnote}{0}
\setcounter{part}{0}
\setcounter{chapter}{10}
\setcounter{section}{8}
\setcounter{subsection}{0}
\setcounter{subsubsection}{0}
\setcounter{paragraph}{0}
\setcounter{subparagraph}{0}
\setcounter{figure}{0}
\setcounter{table}{0}
\setcounter{r@tfl@t}{0}
\setcounter{parentequation}{0}
\setcounter{NAT@ctr}{0}
\setcounter{Item}{7}
\setcounter{Hfootnote}{0}
\setcounter{bookmark@seq@number}{66}
\setcounter{float@type}{4}
\setcounter{ContinuedFloat}{0}
\setcounter{section@level}{1}
}
