\relax 
\providecommand\hyper@newdestlabel[2]{}
\@writefile{toc}{\contentsline {chapter}{\numberline {8}Test History}{15}{chapter.8}}
\@writefile{lof}{\addvspace {10\p@ }}
\@writefile{lot}{\addvspace {10\p@ }}
\newlabel{test-test-history}{{8}{15}{Test History}{chapter.8}{}}
\@writefile{toc}{\contentsline {section}{\numberline {8.1}Identifier}{15}{section.8.1}}
\newlabel{test-section:8.1}{{8.1}{15}{Identifier}{section.8.1}{}}
\@writefile{toc}{\contentsline {section}{\numberline {8.2}Description}{15}{section.8.2}}
\newlabel{test-section:8.2}{{8.2}{15}{Description}{section.8.2}{}}
\@setckpt{test-chap08}{
\setcounter{page}{16}
\setcounter{equation}{0}
\setcounter{enumi}{7}
\setcounter{enumii}{0}
\setcounter{enumiii}{0}
\setcounter{enumiv}{0}
\setcounter{footnote}{0}
\setcounter{mpfootnote}{0}
\setcounter{part}{0}
\setcounter{chapter}{8}
\setcounter{section}{2}
\setcounter{subsection}{0}
\setcounter{subsubsection}{0}
\setcounter{paragraph}{0}
\setcounter{subparagraph}{0}
\setcounter{figure}{0}
\setcounter{table}{0}
\setcounter{r@tfl@t}{0}
\setcounter{parentequation}{0}
\setcounter{NAT@ctr}{0}
\setcounter{Item}{7}
\setcounter{Hfootnote}{0}
\setcounter{bookmark@seq@number}{52}
\setcounter{float@type}{4}
\setcounter{ContinuedFloat}{0}
\setcounter{section@level}{1}
}
