\relax 
\providecommand\hyper@newdestlabel[2]{}
\@writefile{toc}{\contentsline {chapter}{\numberline {9}Test Incident Report}{16}{chapter.9}}
\@writefile{lof}{\addvspace {10\p@ }}
\@writefile{lot}{\addvspace {10\p@ }}
\newlabel{test-test-incident-report}{{9}{16}{Test Incident Report}{chapter.9}{}}
\@writefile{toc}{\contentsline {section}{\numberline {9.1}Identifier}{16}{section.9.1}}
\newlabel{test-section:9.1}{{9.1}{16}{Identifier}{section.9.1}{}}
\@writefile{toc}{\contentsline {section}{\numberline {9.2}Summary}{16}{section.9.2}}
\newlabel{test-section:9.2}{{9.2}{16}{Summary}{section.9.2}{}}
\@writefile{toc}{\contentsline {section}{\numberline {9.3}Description of Event}{16}{section.9.3}}
\newlabel{test-section:9.3}{{9.3}{16}{Description of Event}{section.9.3}{}}
\@writefile{toc}{\contentsline {section}{\numberline {9.4}Consequences}{16}{section.9.4}}
\newlabel{test-section:9.4}{{9.4}{16}{Consequences}{section.9.4}{}}
\@setckpt{test-chap09}{
\setcounter{page}{17}
\setcounter{equation}{0}
\setcounter{enumi}{7}
\setcounter{enumii}{0}
\setcounter{enumiii}{0}
\setcounter{enumiv}{0}
\setcounter{footnote}{0}
\setcounter{mpfootnote}{0}
\setcounter{part}{0}
\setcounter{chapter}{9}
\setcounter{section}{4}
\setcounter{subsection}{0}
\setcounter{subsubsection}{0}
\setcounter{paragraph}{0}
\setcounter{subparagraph}{0}
\setcounter{figure}{0}
\setcounter{table}{0}
\setcounter{r@tfl@t}{0}
\setcounter{parentequation}{0}
\setcounter{NAT@ctr}{0}
\setcounter{Item}{7}
\setcounter{Hfootnote}{0}
\setcounter{bookmark@seq@number}{57}
\setcounter{float@type}{4}
\setcounter{ContinuedFloat}{0}
\setcounter{section@level}{1}
}
