\contentsline {section}{Revision History}{i}{section*.1}
\contentsline {chapter}{\numberline {1}Introduction}{2}{chapter.1}
\contentsline {section}{\numberline {1.1}Purpose}{2}{section.1.1}
\contentsline {section}{\numberline {1.2}Scope}{2}{section.1.2}
\contentsline {section}{\numberline {1.3}Definitions, Acronyms, and Abbreviations}{3}{section.1.3}
\contentsline {section}{\numberline {1.4}References}{3}{section.1.4}
\contentsline {section}{\numberline {1.5}Overview}{4}{section.1.5}
\contentsline {chapter}{\numberline {2}The Documents}{5}{chapter.2}
\contentsline {chapter}{\numberline {3}Test Plan}{6}{chapter.3}
\contentsline {section}{\numberline {3.1}Identifier}{6}{section.3.1}
\contentsline {section}{\numberline {3.2}Summary}{6}{section.3.2}
\contentsline {section}{\numberline {3.3}Items to be Tested}{6}{section.3.3}
\contentsline {section}{\numberline {3.4}Properties to be Tested}{6}{section.3.4}
\contentsline {section}{\numberline {3.5}Properties not to be Tested}{7}{section.3.5}
\contentsline {section}{\numberline {3.6}Overall Description of the Procedure}{7}{section.3.6}
\contentsline {section}{\numberline {3.7}Criteria for Approval/Rejection}{7}{section.3.7}
\contentsline {section}{\numberline {3.8}Criteria to Interrupt and Resume a Test}{7}{section.3.8}
\contentsline {section}{\numberline {3.9}Test Documents}{7}{section.3.9}
\contentsline {section}{\numberline {3.10}Test Tasks}{7}{section.3.10}
\contentsline {section}{\numberline {3.11}Test Requirements for Test Environment}{7}{section.3.11}
\contentsline {section}{\numberline {3.12}Responsibility}{7}{section.3.12}
\contentsline {section}{\numberline {3.13}Staffing and Training Needs}{8}{section.3.13}
\contentsline {section}{\numberline {3.14}Schedule}{8}{section.3.14}
\contentsline {section}{\numberline {3.15}Risks and Alternatives}{8}{section.3.15}
\contentsline {section}{\numberline {3.16}Approval Agency}{8}{section.3.16}
\contentsline {chapter}{\numberline {4}Test Design Specification}{9}{chapter.4}
\contentsline {section}{\numberline {4.1}Identifier}{9}{section.4.1}
\contentsline {section}{\numberline {4.2}Properties to be Tested}{9}{section.4.2}
\contentsline {section}{\numberline {4.3}Detailed Steps}{9}{section.4.3}
\contentsline {section}{\numberline {4.4}Test Identification}{9}{section.4.4}
\contentsline {section}{\numberline {4.5}Acceptance Criteria}{10}{section.4.5}
\contentsline {chapter}{\numberline {5}Test Situation Specification}{11}{chapter.5}
\contentsline {section}{\numberline {5.1}Identifier}{11}{section.5.1}
\contentsline {section}{\numberline {5.2}Test Items}{11}{section.5.2}
\contentsline {section}{\numberline {5.3}Specification of Input}{11}{section.5.3}
\contentsline {section}{\numberline {5.4}Specification of Output}{11}{section.5.4}
\contentsline {section}{\numberline {5.5}Test Environment}{12}{section.5.5}
\contentsline {section}{\numberline {5.6}Special Procedures}{12}{section.5.6}
\contentsline {section}{\numberline {5.7}Dependencies between Test Situations}{12}{section.5.7}
\contentsline {chapter}{\numberline {6}Test Procedure Specification}{13}{chapter.6}
\contentsline {section}{\numberline {6.1}Identifier}{13}{section.6.1}
\contentsline {section}{\numberline {6.2}Purpose}{13}{section.6.2}
\contentsline {section}{\numberline {6.3}Special Requirements}{13}{section.6.3}
\contentsline {section}{\numberline {6.4}Procedure Steps}{13}{section.6.4}
\contentsline {chapter}{\numberline {7}Test Subject Report}{14}{chapter.7}
\contentsline {section}{\numberline {7.1}Identifier}{14}{section.7.1}
\contentsline {section}{\numberline {7.2}Items Ready for Testing}{14}{section.7.2}
\contentsline {section}{\numberline {7.3}Where to Obtain Module?}{14}{section.7.3}
\contentsline {section}{\numberline {7.4}Approval}{14}{section.7.4}
\contentsline {chapter}{\numberline {8}Test History}{15}{chapter.8}
\contentsline {section}{\numberline {8.1}Identifier}{15}{section.8.1}
\contentsline {section}{\numberline {8.2}Description}{15}{section.8.2}
\contentsline {chapter}{\numberline {9}Test Incident Report}{16}{chapter.9}
\contentsline {section}{\numberline {9.1}Identifier}{16}{section.9.1}
\contentsline {section}{\numberline {9.2}Summary}{16}{section.9.2}
\contentsline {section}{\numberline {9.3}Description of Event}{16}{section.9.3}
\contentsline {section}{\numberline {9.4}Consequences}{16}{section.9.4}
\contentsline {chapter}{\numberline {10}Test Summary Report}{17}{chapter.10}
\contentsline {section}{\numberline {10.1}Identifier}{17}{section.10.1}
\contentsline {section}{\numberline {10.2}Summary}{17}{section.10.2}
\contentsline {section}{\numberline {10.3}Deviation}{17}{section.10.3}
\contentsline {section}{\numberline {10.4}Assessment of Coverage}{17}{section.10.4}
\contentsline {section}{\numberline {10.5}Summary of Results}{18}{section.10.5}
\contentsline {section}{\numberline {10.6}Evaluation}{18}{section.10.6}
\contentsline {section}{\numberline {10.7}Summary of Activities}{18}{section.10.7}
\contentsline {section}{\numberline {10.8}Approval}{18}{section.10.8}
