\relax 
\providecommand\hyper@newdestlabel[2]{}
\@writefile{toc}{\contentsline {chapter}{\numberline {4}Test Design Specification}{9}{chapter.4}}
\@writefile{lof}{\addvspace {10\p@ }}
\@writefile{lot}{\addvspace {10\p@ }}
\newlabel{test-test-design-specification}{{4}{9}{Test Design Specification}{chapter.4}{}}
\@writefile{toc}{\contentsline {section}{\numberline {4.1}Identifier}{9}{section.4.1}}
\newlabel{test-section:4.1}{{4.1}{9}{Identifier}{section.4.1}{}}
\@writefile{toc}{\contentsline {section}{\numberline {4.2}Properties to be Tested}{9}{section.4.2}}
\newlabel{test-section:4.2}{{4.2}{9}{Properties to be Tested}{section.4.2}{}}
\@writefile{toc}{\contentsline {section}{\numberline {4.3}Detailed Steps}{9}{section.4.3}}
\newlabel{test-section:4.3}{{4.3}{9}{Detailed Steps}{section.4.3}{}}
\@writefile{toc}{\contentsline {section}{\numberline {4.4}Test Identification}{9}{section.4.4}}
\newlabel{test-section:4.4}{{4.4}{9}{Test Identification}{section.4.4}{}}
\@writefile{toc}{\contentsline {section}{\numberline {4.5}Acceptance Criteria}{10}{section.4.5}}
\newlabel{test-section:4.5}{{4.5}{10}{Acceptance Criteria}{section.4.5}{}}
\@setckpt{test-chap04}{
\setcounter{page}{11}
\setcounter{equation}{0}
\setcounter{enumi}{7}
\setcounter{enumii}{0}
\setcounter{enumiii}{0}
\setcounter{enumiv}{0}
\setcounter{footnote}{0}
\setcounter{mpfootnote}{0}
\setcounter{part}{0}
\setcounter{chapter}{4}
\setcounter{section}{5}
\setcounter{subsection}{0}
\setcounter{subsubsection}{0}
\setcounter{paragraph}{0}
\setcounter{subparagraph}{0}
\setcounter{figure}{0}
\setcounter{table}{0}
\setcounter{r@tfl@t}{0}
\setcounter{parentequation}{0}
\setcounter{NAT@ctr}{0}
\setcounter{Item}{7}
\setcounter{Hfootnote}{0}
\setcounter{bookmark@seq@number}{31}
\setcounter{float@type}{4}
\setcounter{ContinuedFloat}{0}
\setcounter{section@level}{1}
}
