\relax 
\providecommand\hyper@newdestlabel[2]{}
\@writefile{toc}{\contentsline {chapter}{\numberline {6}Test Procedure Specification}{13}{chapter.6}}
\@writefile{lof}{\addvspace {10\p@ }}
\@writefile{lot}{\addvspace {10\p@ }}
\newlabel{test-test-procedure-specification}{{6}{13}{Test Procedure Specification}{chapter.6}{}}
\@writefile{toc}{\contentsline {section}{\numberline {6.1}Identifier}{13}{section.6.1}}
\newlabel{test-section:6.1}{{6.1}{13}{Identifier}{section.6.1}{}}
\@writefile{toc}{\contentsline {section}{\numberline {6.2}Purpose}{13}{section.6.2}}
\newlabel{test-section:6.2}{{6.2}{13}{Purpose}{section.6.2}{}}
\@writefile{toc}{\contentsline {section}{\numberline {6.3}Special Requirements}{13}{section.6.3}}
\newlabel{test-section:6.3}{{6.3}{13}{Special Requirements}{section.6.3}{}}
\@writefile{toc}{\contentsline {section}{\numberline {6.4}Procedure Steps}{13}{section.6.4}}
\newlabel{test-section:6.4}{{6.4}{13}{Procedure Steps}{section.6.4}{}}
\@setckpt{test-chap06}{
\setcounter{page}{14}
\setcounter{equation}{0}
\setcounter{enumi}{7}
\setcounter{enumii}{0}
\setcounter{enumiii}{0}
\setcounter{enumiv}{0}
\setcounter{footnote}{0}
\setcounter{mpfootnote}{0}
\setcounter{part}{0}
\setcounter{chapter}{6}
\setcounter{section}{4}
\setcounter{subsection}{0}
\setcounter{subsubsection}{0}
\setcounter{paragraph}{0}
\setcounter{subparagraph}{0}
\setcounter{figure}{0}
\setcounter{table}{0}
\setcounter{r@tfl@t}{0}
\setcounter{parentequation}{0}
\setcounter{NAT@ctr}{0}
\setcounter{Item}{7}
\setcounter{Hfootnote}{0}
\setcounter{bookmark@seq@number}{44}
\setcounter{float@type}{4}
\setcounter{ContinuedFloat}{0}
\setcounter{section@level}{1}
}
