\relax 
\providecommand\hyper@newdestlabel[2]{}
\@writefile{toc}{\contentsline {chapter}{\numberline {5}Test Situation Specification}{11}{chapter.5}}
\@writefile{lof}{\addvspace {10\p@ }}
\@writefile{lot}{\addvspace {10\p@ }}
\newlabel{test-test-situation-specification}{{5}{11}{Test Situation Specification}{chapter.5}{}}
\@writefile{toc}{\contentsline {section}{\numberline {5.1}Identifier}{11}{section.5.1}}
\newlabel{test-section:5.1}{{5.1}{11}{Identifier}{section.5.1}{}}
\@writefile{toc}{\contentsline {section}{\numberline {5.2}Test Items}{11}{section.5.2}}
\newlabel{test-section:5.2}{{5.2}{11}{Test Items}{section.5.2}{}}
\@writefile{toc}{\contentsline {section}{\numberline {5.3}Specification of Input}{11}{section.5.3}}
\newlabel{test-section:5.3}{{5.3}{11}{Specification of Input}{section.5.3}{}}
\@writefile{toc}{\contentsline {section}{\numberline {5.4}Specification of Output}{11}{section.5.4}}
\newlabel{test-section:5.4}{{5.4}{11}{Specification of Output}{section.5.4}{}}
\@writefile{toc}{\contentsline {section}{\numberline {5.5}Test Environment}{12}{section.5.5}}
\newlabel{test-section:5.5}{{5.5}{12}{Test Environment}{section.5.5}{}}
\@writefile{toc}{\contentsline {section}{\numberline {5.6}Special Procedures}{12}{section.5.6}}
\newlabel{test-section:5.6}{{5.6}{12}{Special Procedures}{section.5.6}{}}
\@writefile{toc}{\contentsline {section}{\numberline {5.7}Dependencies between Test Situations}{12}{section.5.7}}
\newlabel{test-section:5.7}{{5.7}{12}{Dependencies between Test Situations}{section.5.7}{}}
\@setckpt{test-chap05}{
\setcounter{page}{13}
\setcounter{equation}{0}
\setcounter{enumi}{7}
\setcounter{enumii}{0}
\setcounter{enumiii}{0}
\setcounter{enumiv}{0}
\setcounter{footnote}{0}
\setcounter{mpfootnote}{0}
\setcounter{part}{0}
\setcounter{chapter}{5}
\setcounter{section}{7}
\setcounter{subsection}{0}
\setcounter{subsubsection}{0}
\setcounter{paragraph}{0}
\setcounter{subparagraph}{0}
\setcounter{figure}{0}
\setcounter{table}{0}
\setcounter{r@tfl@t}{0}
\setcounter{parentequation}{0}
\setcounter{NAT@ctr}{0}
\setcounter{Item}{7}
\setcounter{Hfootnote}{0}
\setcounter{bookmark@seq@number}{39}
\setcounter{float@type}{4}
\setcounter{ContinuedFloat}{0}
\setcounter{section@level}{1}
}
