\relax 
\providecommand\hyper@newdestlabel[2]{}
\@writefile{toc}{\contentsline {chapter}{\numberline {3}Test Plan}{6}{chapter.3}}
\@writefile{lof}{\addvspace {10\p@ }}
\@writefile{lot}{\addvspace {10\p@ }}
\newlabel{test-test-plan}{{3}{6}{Test Plan}{chapter.3}{}}
\@writefile{toc}{\contentsline {section}{\numberline {3.1}Identifier}{6}{section.3.1}}
\newlabel{test-section:3.1}{{3.1}{6}{Identifier}{section.3.1}{}}
\@writefile{toc}{\contentsline {section}{\numberline {3.2}Summary}{6}{section.3.2}}
\newlabel{test-section:3.2}{{3.2}{6}{Summary}{section.3.2}{}}
\@writefile{toc}{\contentsline {section}{\numberline {3.3}Items to be Tested}{6}{section.3.3}}
\newlabel{test-section:3.3}{{3.3}{6}{Items to be Tested}{section.3.3}{}}
\@writefile{toc}{\contentsline {section}{\numberline {3.4}Properties to be Tested}{6}{section.3.4}}
\newlabel{test-section:3.4}{{3.4}{6}{Properties to be Tested}{section.3.4}{}}
\@writefile{toc}{\contentsline {section}{\numberline {3.5}Properties not to be Tested}{7}{section.3.5}}
\newlabel{test-section:3.5}{{3.5}{7}{Properties not to be Tested}{section.3.5}{}}
\@writefile{toc}{\contentsline {section}{\numberline {3.6}Overall Description of the Procedure}{7}{section.3.6}}
\newlabel{test-section:3.6}{{3.6}{7}{Overall Description of the Procedure}{section.3.6}{}}
\@writefile{toc}{\contentsline {section}{\numberline {3.7}Criteria for Approval/Rejection}{7}{section.3.7}}
\newlabel{test-section:3.7}{{3.7}{7}{Criteria for Approval/Rejection}{section.3.7}{}}
\@writefile{toc}{\contentsline {section}{\numberline {3.8}Criteria to Interrupt and Resume a Test}{7}{section.3.8}}
\newlabel{test-section:3.8}{{3.8}{7}{Criteria to Interrupt and Resume a Test}{section.3.8}{}}
\@writefile{toc}{\contentsline {section}{\numberline {3.9}Test Documents}{7}{section.3.9}}
\newlabel{test-section:3.9}{{3.9}{7}{Test Documents}{section.3.9}{}}
\@writefile{toc}{\contentsline {section}{\numberline {3.10}Test Tasks}{7}{section.3.10}}
\newlabel{test-section:3.10}{{3.10}{7}{Test Tasks}{section.3.10}{}}
\@writefile{toc}{\contentsline {section}{\numberline {3.11}Test Requirements for Test Environment}{7}{section.3.11}}
\newlabel{test-section:3.11}{{3.11}{7}{Test Requirements for Test Environment}{section.3.11}{}}
\@writefile{toc}{\contentsline {section}{\numberline {3.12}Responsibility}{7}{section.3.12}}
\newlabel{test-section:3.12}{{3.12}{7}{Responsibility}{section.3.12}{}}
\@writefile{toc}{\contentsline {section}{\numberline {3.13}Staffing and Training Needs}{8}{section.3.13}}
\newlabel{test-section:3.13}{{3.13}{8}{Staffing and Training Needs}{section.3.13}{}}
\@writefile{toc}{\contentsline {section}{\numberline {3.14}Schedule}{8}{section.3.14}}
\newlabel{test-section:3.14}{{3.14}{8}{Schedule}{section.3.14}{}}
\@writefile{toc}{\contentsline {section}{\numberline {3.15}Risks and Alternatives}{8}{section.3.15}}
\newlabel{test-section:3.15}{{3.15}{8}{Risks and Alternatives}{section.3.15}{}}
\@writefile{toc}{\contentsline {section}{\numberline {3.16}Approval Agency}{8}{section.3.16}}
\newlabel{test-section:3.16}{{3.16}{8}{Approval Agency}{section.3.16}{}}
\@setckpt{test-chap03}{
\setcounter{page}{9}
\setcounter{equation}{0}
\setcounter{enumi}{7}
\setcounter{enumii}{0}
\setcounter{enumiii}{0}
\setcounter{enumiv}{0}
\setcounter{footnote}{0}
\setcounter{mpfootnote}{0}
\setcounter{part}{0}
\setcounter{chapter}{3}
\setcounter{section}{16}
\setcounter{subsection}{0}
\setcounter{subsubsection}{0}
\setcounter{paragraph}{0}
\setcounter{subparagraph}{0}
\setcounter{figure}{0}
\setcounter{table}{0}
\setcounter{r@tfl@t}{0}
\setcounter{parentequation}{0}
\setcounter{NAT@ctr}{0}
\setcounter{Item}{7}
\setcounter{Hfootnote}{0}
\setcounter{bookmark@seq@number}{25}
\setcounter{float@type}{4}
\setcounter{ContinuedFloat}{0}
\setcounter{section@level}{1}
}
