\relax 
\providecommand\hyper@newdestlabel[2]{}
\@writefile{toc}{\contentsline {chapter}{\numberline {4}The Design Class Model}{8}{chapter.4}}
\@writefile{lof}{\addvspace {10\p@ }}
\@writefile{lot}{\addvspace {10\p@ }}
\newlabel{design-the-design-class-model}{{4}{8}{The Design Class Model}{chapter.4}{}}
\@writefile{toc}{\contentsline {section}{\numberline {4.1}Conceptual Design Class Model}{8}{section.4.1}}
\newlabel{design-section:4.1}{{4.1}{8}{Conceptual Design Class Model}{section.4.1}{}}
\@writefile{toc}{\contentsline {section}{\numberline {4.2}A Detailed Description of Object Class A}{8}{section.4.2}}
\newlabel{design-section:4.2}{{4.2}{8}{A Detailed Description of Object Class A}{section.4.2}{}}
\@writefile{toc}{\contentsline {section}{\numberline {4.3}A Detailed Description of Object Class B}{8}{section.4.3}}
\newlabel{design-section:4.3}{{4.3}{8}{A Detailed Description of Object Class B}{section.4.3}{}}
\@writefile{toc}{\contentsline {section}{\numberline {4.4}A Detailed Description of Interface I1}{8}{section.4.4}}
\newlabel{design-section:4.4}{{4.4}{8}{A Detailed Description of Interface I1}{section.4.4}{}}
\@writefile{toc}{\contentsline {section}{\numberline {4.5}A Detailed Description of Interface I2}{9}{section.4.5}}
\newlabel{design-section:4.5}{{4.5}{9}{A Detailed Description of Interface I2}{section.4.5}{}}
\@setckpt{design-chap04}{
\setcounter{page}{10}
\setcounter{equation}{0}
\setcounter{enumi}{7}
\setcounter{enumii}{0}
\setcounter{enumiii}{0}
\setcounter{enumiv}{0}
\setcounter{footnote}{0}
\setcounter{mpfootnote}{0}
\setcounter{part}{0}
\setcounter{chapter}{4}
\setcounter{section}{5}
\setcounter{subsection}{0}
\setcounter{subsubsection}{0}
\setcounter{paragraph}{0}
\setcounter{subparagraph}{0}
\setcounter{figure}{0}
\setcounter{table}{0}
\setcounter{r@tfl@t}{0}
\setcounter{parentequation}{0}
\setcounter{NAT@ctr}{0}
\setcounter{Item}{7}
\setcounter{Hfootnote}{0}
\setcounter{bookmark@seq@number}{24}
\setcounter{float@type}{4}
\setcounter{ContinuedFloat}{0}
\setcounter{section@level}{1}
}
