\relax 
\providecommand\hyper@newdestlabel[2]{}
\@writefile{toc}{\contentsline {chapter}{\numberline {3}The Design}{6}{chapter.3}}
\@writefile{lof}{\addvspace {10\p@ }}
\@writefile{lot}{\addvspace {10\p@ }}
\newlabel{design-the-design}{{3}{6}{The Design}{chapter.3}{}}
\@writefile{toc}{\contentsline {section}{\numberline {3.1}Controller}{6}{section.3.1}}
\newlabel{design-section:3.1}{{3.1}{6}{Controller}{section.3.1}{}}
\@writefile{toc}{\contentsline {section}{\numberline {3.2}Use Case 1}{6}{section.3.2}}
\newlabel{design-section:3.2}{{3.2}{6}{Use Case 1}{section.3.2}{}}
\@writefile{toc}{\contentsline {subsection}{\numberline {3.2.1}System Event 1.1}{6}{subsection.3.2.1}}
\newlabel{design-section:3.2.1}{{3.2.1}{6}{System Event 1.1}{subsection.3.2.1}{}}
\@writefile{toc}{\contentsline {subsection}{\numberline {3.2.2}System Event 1.2}{6}{subsection.3.2.2}}
\newlabel{design-section:3.2.2}{{3.2.2}{6}{System Event 1.2}{subsection.3.2.2}{}}
\@writefile{toc}{\contentsline {section}{\numberline {3.3}Use Case 2}{7}{section.3.3}}
\newlabel{design-section:3.3}{{3.3}{7}{Use Case 2}{section.3.3}{}}
\@writefile{toc}{\contentsline {subsection}{\numberline {3.3.1}System Event 2.1}{7}{subsection.3.3.1}}
\newlabel{design-section:3.3.1}{{3.3.1}{7}{System Event 2.1}{subsection.3.3.1}{}}
\@writefile{toc}{\contentsline {subsection}{\numberline {3.3.2}System Event 2.2}{7}{subsection.3.3.2}}
\newlabel{design-section:3.3.2}{{3.3.2}{7}{System Event 2.2}{subsection.3.3.2}{}}
\@setckpt{design-chap03}{
\setcounter{page}{8}
\setcounter{equation}{0}
\setcounter{enumi}{7}
\setcounter{enumii}{0}
\setcounter{enumiii}{0}
\setcounter{enumiv}{0}
\setcounter{footnote}{0}
\setcounter{mpfootnote}{0}
\setcounter{part}{0}
\setcounter{chapter}{3}
\setcounter{section}{3}
\setcounter{subsection}{2}
\setcounter{subsubsection}{0}
\setcounter{paragraph}{0}
\setcounter{subparagraph}{0}
\setcounter{figure}{0}
\setcounter{table}{0}
\setcounter{r@tfl@t}{0}
\setcounter{parentequation}{0}
\setcounter{NAT@ctr}{0}
\setcounter{Item}{7}
\setcounter{Hfootnote}{0}
\setcounter{bookmark@seq@number}{18}
\setcounter{float@type}{4}
\setcounter{ContinuedFloat}{0}
\setcounter{section@level}{2}
}
