\relax 
\providecommand\hyper@newdestlabel[2]{}
\@writefile{toc}{\contentsline {chapter}{\numberline {1}Introduction}{2}{chapter.1}}
\@writefile{lof}{\addvspace {10\p@ }}
\@writefile{lot}{\addvspace {10\p@ }}
\newlabel{design-introduction}{{1}{2}{Introduction}{chapter.1}{}}
\@writefile{toc}{\contentsline {section}{\numberline {1.1}Purpose}{2}{section.1.1}}
\newlabel{design-section:1.1}{{1.1}{2}{Purpose}{section.1.1}{}}
\@writefile{toc}{\contentsline {section}{\numberline {1.2}Scope}{2}{section.1.2}}
\newlabel{design-section:1.2}{{1.2}{2}{Scope}{section.1.2}{}}
\@writefile{toc}{\contentsline {section}{\numberline {1.3}Definitions, Acronyms, and Abbreviations}{3}{section.1.3}}
\newlabel{design-section:1.3}{{1.3}{3}{Definitions, Acronyms, and Abbreviations}{section.1.3}{}}
\@writefile{lot}{\contentsline {table}{\numberline {1.1}{\ignorespaces Definitions, Acronyms, and Abbreviations\relax }}{3}{table.caption.4}}
\newlabel{table:1.1}{{1.1}{3}{Definitions, Acronyms, and Abbreviations\relax }{table.caption.4}{}}
\@writefile{toc}{\contentsline {section}{\numberline {1.4}References}{3}{section.1.4}}
\newlabel{design-section:1.4}{{1.4}{3}{References}{section.1.4}{}}
\newlabel{ref:1}{{1}{3}{References}{Item.1}{}}
\newlabel{ref:2}{{2}{3}{References}{Item.2}{}}
\newlabel{ref:3}{{3}{3}{References}{Item.3}{}}
\newlabel{ref:4}{{4}{3}{References}{Item.4}{}}
\newlabel{ref:5}{{5}{3}{References}{Item.5}{}}
\newlabel{ref:6}{{6}{3}{References}{Item.6}{}}
\newlabel{ref:7}{{7}{3}{References}{Item.7}{}}
\@writefile{toc}{\contentsline {section}{\numberline {1.5}Overview}{4}{section.1.5}}
\newlabel{design-section:1.5}{{1.5}{4}{Overview}{section.1.5}{}}
\@setckpt{design-chap01}{
\setcounter{page}{5}
\setcounter{equation}{0}
\setcounter{enumi}{7}
\setcounter{enumii}{0}
\setcounter{enumiii}{0}
\setcounter{enumiv}{0}
\setcounter{footnote}{0}
\setcounter{mpfootnote}{0}
\setcounter{part}{0}
\setcounter{chapter}{1}
\setcounter{section}{5}
\setcounter{subsection}{0}
\setcounter{subsubsection}{0}
\setcounter{paragraph}{0}
\setcounter{subparagraph}{0}
\setcounter{figure}{0}
\setcounter{table}{1}
\setcounter{r@tfl@t}{0}
\setcounter{parentequation}{0}
\setcounter{NAT@ctr}{0}
\setcounter{Item}{7}
\setcounter{Hfootnote}{0}
\setcounter{bookmark@seq@number}{7}
\setcounter{float@type}{4}
\setcounter{ContinuedFloat}{0}
\setcounter{section@level}{1}
}
