\relax 
\providecommand\hyper@newdestlabel[2]{}
\@writefile{toc}{\contentsline {chapter}{\numberline {2}Background and Overview}{5}{chapter.2}}
\@writefile{lof}{\addvspace {10\p@ }}
\@writefile{lot}{\addvspace {10\p@ }}
\newlabel{requirements-background-and-overview}{{2}{5}{Background and Overview}{chapter.2}{}}
\@writefile{toc}{\contentsline {section}{\numberline {2.1}Use Case Model Survey}{5}{section.2.1}}
\newlabel{requirements-section:2.1}{{2.1}{5}{Use Case Model Survey}{section.2.1}{}}
\@writefile{toc}{\contentsline {section}{\numberline {2.2}Assumptions and Dependencies}{5}{section.2.2}}
\newlabel{requirements-section:2.2}{{2.2}{5}{Assumptions and Dependencies}{section.2.2}{}}
\@setckpt{requirements-chap02}{
\setcounter{page}{7}
\setcounter{equation}{0}
\setcounter{enumi}{6}
\setcounter{enumii}{0}
\setcounter{enumiii}{0}
\setcounter{enumiv}{0}
\setcounter{footnote}{0}
\setcounter{mpfootnote}{0}
\setcounter{part}{0}
\setcounter{chapter}{2}
\setcounter{section}{2}
\setcounter{subsection}{0}
\setcounter{subsubsection}{0}
\setcounter{paragraph}{0}
\setcounter{subparagraph}{0}
\setcounter{figure}{0}
\setcounter{table}{0}
\setcounter{r@tfl@t}{0}
\setcounter{parentequation}{0}
\setcounter{NAT@ctr}{0}
\setcounter{Item}{6}
\setcounter{Hfootnote}{0}
\setcounter{bookmark@seq@number}{10}
\setcounter{float@type}{4}
\setcounter{ContinuedFloat}{0}
\setcounter{section@level}{1}
}
