\relax 
\providecommand\hyper@newdestlabel[2]{}
\@writefile{toc}{\contentsline {chapter}{\numberline {4}System Sequence Diagram}{11}{chapter.4}}
\@writefile{lof}{\addvspace {10\p@ }}
\@writefile{lot}{\addvspace {10\p@ }}
\newlabel{requirements-system-sequence-diagram}{{4}{11}{System Sequence Diagram}{chapter.4}{}}
\@writefile{toc}{\contentsline {section}{\numberline {4.1}Encrypt Data}{11}{section.4.1}}
\newlabel{requirements-section:4.1}{{4.1}{11}{Encrypt Data}{section.4.1}{}}
\@writefile{lof}{\contentsline {figure}{\numberline {4.1}{\ignorespaces System Sequence Diagram for Data Encryption\relax }}{11}{figure.caption.9}}
\newlabel{requirements-figure:4.1}{{4.1}{11}{System Sequence Diagram for Data Encryption\relax }{figure.caption.9}{}}
\@writefile{toc}{\contentsline {section}{\numberline {4.2}Decrypt Data}{12}{section.4.2}}
\newlabel{requirements-section:4.2}{{4.2}{12}{Decrypt Data}{section.4.2}{}}
\@writefile{lof}{\contentsline {figure}{\numberline {4.2}{\ignorespaces System Sequence Diagram for Data Decryption\relax }}{12}{figure.caption.10}}
\newlabel{requirements-figure:4.2}{{4.2}{12}{System Sequence Diagram for Data Decryption\relax }{figure.caption.10}{}}
\@setckpt{requirements-chap04}{
\setcounter{page}{13}
\setcounter{equation}{0}
\setcounter{enumi}{6}
\setcounter{enumii}{0}
\setcounter{enumiii}{0}
\setcounter{enumiv}{0}
\setcounter{footnote}{0}
\setcounter{mpfootnote}{0}
\setcounter{part}{0}
\setcounter{chapter}{4}
\setcounter{section}{2}
\setcounter{subsection}{0}
\setcounter{subsubsection}{0}
\setcounter{paragraph}{0}
\setcounter{subparagraph}{0}
\setcounter{figure}{2}
\setcounter{table}{0}
\setcounter{r@tfl@t}{0}
\setcounter{parentequation}{0}
\setcounter{NAT@ctr}{0}
\setcounter{Item}{6}
\setcounter{Hfootnote}{0}
\setcounter{bookmark@seq@number}{24}
\setcounter{float@type}{4}
\setcounter{ContinuedFloat}{0}
\setcounter{section@level}{1}
}
