\BOOKMARK [1][-]{section*.1}{Revision History}{}% 1
\BOOKMARK [0][-]{chapter.1}{Introduction}{}% 2
\BOOKMARK [1][-]{section.1.1}{Purpose}{chapter.1}% 3
\BOOKMARK [1][-]{section.1.2}{Scope}{chapter.1}% 4
\BOOKMARK [1][-]{section.1.3}{Definitions, Acronyms, and Abbreviations}{chapter.1}% 5
\BOOKMARK [1][-]{section.1.4}{References}{chapter.1}% 6
\BOOKMARK [1][-]{section.1.5}{Overview}{chapter.1}% 7
\BOOKMARK [0][-]{chapter.2}{Background and Overview}{}% 8
\BOOKMARK [1][-]{section.2.1}{Use Case Model Survey}{chapter.2}% 9
\BOOKMARK [1][-]{section.2.2}{Assumptions and Dependencies}{chapter.2}% 10
\BOOKMARK [0][-]{chapter.3}{Specific Requirements}{}% 11
\BOOKMARK [1][-]{section.3.1}{Use Case Reports}{chapter.3}% 12
\BOOKMARK [2][-]{subsection.3.1.1}{Encrypt Data}{section.3.1}% 13
\BOOKMARK [2][-]{subsection.3.1.2}{Decrypt Data}{section.3.1}% 14
\BOOKMARK [1][-]{section.3.2}{Supplementary Specifications}{chapter.3}% 15
\BOOKMARK [2][-]{subsection.3.2.1}{Functionality}{section.3.2}% 16
\BOOKMARK [2][-]{subsection.3.2.2}{Ease of Use}{section.3.2}% 17
\BOOKMARK [2][-]{subsection.3.2.3}{Reliability}{section.3.2}% 18
\BOOKMARK [2][-]{subsection.3.2.4}{Performance}{section.3.2}% 19
\BOOKMARK [2][-]{subsection.3.2.5}{Support}{section.3.2}% 20
\BOOKMARK [2][-]{subsection.3.2.6}{Structure Restrictions}{section.3.2}% 21
\BOOKMARK [0][-]{chapter.4}{System Sequence Diagram}{}% 22
\BOOKMARK [1][-]{section.4.1}{Encrypt Data}{chapter.4}% 23
\BOOKMARK [1][-]{section.4.2}{Decrypt Data}{chapter.4}% 24
\BOOKMARK [0][-]{chapter.5}{Problem Domain Model}{}% 25
\BOOKMARK [0][-]{chapter.6}{Additional Information}{}% 26
