\contentsline {section}{Revision History}{i}{section*.1}
\contentsline {chapter}{\numberline {1}Introduction}{2}{chapter.1}
\contentsline {section}{\numberline {1.1}Purpose}{2}{section.1.1}
\contentsline {section}{\numberline {1.2}Scope}{2}{section.1.2}
\contentsline {section}{\numberline {1.3}Definitions, Acronyms, and Abbreviations}{3}{section.1.3}
\contentsline {section}{\numberline {1.4}References}{3}{section.1.4}
\contentsline {section}{\numberline {1.5}Overview}{4}{section.1.5}
\contentsline {chapter}{\numberline {2}Background and Overview}{5}{chapter.2}
\contentsline {section}{\numberline {2.1}Use Case Model Survey}{5}{section.2.1}
\contentsline {section}{\numberline {2.2}Assumptions and Dependencies}{5}{section.2.2}
\contentsline {chapter}{\numberline {3}Specific Requirements}{7}{chapter.3}
\contentsline {section}{\numberline {3.1}Use Case Reports}{7}{section.3.1}
\contentsline {subsection}{\numberline {3.1.1}Encrypt Data}{7}{subsection.3.1.1}
\contentsline {subsection}{\numberline {3.1.2}Decrypt Data}{8}{subsection.3.1.2}
\contentsline {section}{\numberline {3.2}Supplementary Specifications}{9}{section.3.2}
\contentsline {subsection}{\numberline {3.2.1}Functionality}{9}{subsection.3.2.1}
\contentsline {subsection}{\numberline {3.2.2}Ease of Use}{10}{subsection.3.2.2}
\contentsline {subsection}{\numberline {3.2.3}Reliability}{10}{subsection.3.2.3}
\contentsline {subsection}{\numberline {3.2.4}Performance}{10}{subsection.3.2.4}
\contentsline {subsection}{\numberline {3.2.5}Support}{10}{subsection.3.2.5}
\contentsline {subsection}{\numberline {3.2.6}Structure Restrictions}{10}{subsection.3.2.6}
\contentsline {chapter}{\numberline {4}System Sequence Diagram}{11}{chapter.4}
\contentsline {section}{\numberline {4.1}Encrypt Data}{11}{section.4.1}
\contentsline {section}{\numberline {4.2}Decrypt Data}{12}{section.4.2}
\contentsline {chapter}{\numberline {5}Problem Domain Model}{13}{chapter.5}
\contentsline {chapter}{\numberline {6}Additional Information}{14}{chapter.6}
