\relax 
\providecommand\hyper@newdestlabel[2]{}
\@writefile{toc}{\contentsline {chapter}{\numberline {3}Specific Requirements}{7}{chapter.3}}
\@writefile{lof}{\addvspace {10\p@ }}
\@writefile{lot}{\addvspace {10\p@ }}
\newlabel{requirements-specific-requirements}{{3}{7}{Specific Requirements}{chapter.3}{}}
\@writefile{toc}{\contentsline {section}{\numberline {3.1}Use Case Reports}{7}{section.3.1}}
\newlabel{requirements-section:3.1}{{3.1}{7}{Use Case Reports}{section.3.1}{}}
\@writefile{toc}{\contentsline {subsection}{\numberline {3.1.1}Encrypt Data}{7}{subsection.3.1.1}}
\newlabel{requirements-section:3.1.1}{{3.1.1}{7}{Encrypt Data}{subsection.3.1.1}{}}
\@writefile{lof}{\contentsline {figure}{\numberline {3.1}{\ignorespaces Encrypt Data\relax }}{7}{figure.caption.5}}
\newlabel{requirements-figure:3.1}{{3.1}{7}{Encrypt Data\relax }{figure.caption.5}{}}
\@writefile{lot}{\contentsline {table}{\numberline {3.1}{\ignorespaces Data Encryption\relax }}{8}{table.caption.6}}
\newlabel{requirements-table:3.1}{{3.1}{8}{Data Encryption\relax }{table.caption.6}{}}
\@writefile{toc}{\contentsline {subsection}{\numberline {3.1.2}Decrypt Data}{8}{subsection.3.1.2}}
\newlabel{requirements-section:3.1.2}{{3.1.2}{8}{Decrypt Data}{subsection.3.1.2}{}}
\@writefile{lof}{\contentsline {figure}{\numberline {3.2}{\ignorespaces Decrypt Data\relax }}{8}{figure.caption.7}}
\newlabel{requirements-figure:3.2}{{3.2}{8}{Decrypt Data\relax }{figure.caption.7}{}}
\@writefile{lot}{\contentsline {table}{\numberline {3.2}{\ignorespaces Data Decryption\relax }}{9}{table.caption.8}}
\newlabel{requirements-table:3.2}{{3.2}{9}{Data Decryption\relax }{table.caption.8}{}}
\@writefile{toc}{\contentsline {section}{\numberline {3.2}Supplementary Specifications}{9}{section.3.2}}
\newlabel{requirements-section:3.2}{{3.2}{9}{Supplementary Specifications}{section.3.2}{}}
\@writefile{toc}{\contentsline {subsection}{\numberline {3.2.1}Functionality}{9}{subsection.3.2.1}}
\newlabel{requirements-section:3.2.1}{{3.2.1}{9}{Functionality}{subsection.3.2.1}{}}
\@writefile{toc}{\contentsline {subsection}{\numberline {3.2.2}Ease of Use}{10}{subsection.3.2.2}}
\newlabel{requirements-section:3.2.2}{{3.2.2}{10}{Ease of Use}{subsection.3.2.2}{}}
\@writefile{toc}{\contentsline {subsection}{\numberline {3.2.3}Reliability}{10}{subsection.3.2.3}}
\newlabel{requirements-section:3.2.3}{{3.2.3}{10}{Reliability}{subsection.3.2.3}{}}
\@writefile{toc}{\contentsline {subsection}{\numberline {3.2.4}Performance}{10}{subsection.3.2.4}}
\newlabel{requirements-section:3.2.4}{{3.2.4}{10}{Performance}{subsection.3.2.4}{}}
\@writefile{toc}{\contentsline {subsection}{\numberline {3.2.5}Support}{10}{subsection.3.2.5}}
\newlabel{requirements-section:3.2.5}{{3.2.5}{10}{Support}{subsection.3.2.5}{}}
\@writefile{toc}{\contentsline {subsection}{\numberline {3.2.6}Structure Restrictions}{10}{subsection.3.2.6}}
\newlabel{requirements-section:3.2.6}{{3.2.6}{10}{Structure Restrictions}{subsection.3.2.6}{}}
\@setckpt{requirements-chap03}{
\setcounter{page}{11}
\setcounter{equation}{0}
\setcounter{enumi}{6}
\setcounter{enumii}{0}
\setcounter{enumiii}{0}
\setcounter{enumiv}{0}
\setcounter{footnote}{0}
\setcounter{mpfootnote}{0}
\setcounter{part}{0}
\setcounter{chapter}{3}
\setcounter{section}{2}
\setcounter{subsection}{6}
\setcounter{subsubsection}{0}
\setcounter{paragraph}{0}
\setcounter{subparagraph}{0}
\setcounter{figure}{2}
\setcounter{table}{2}
\setcounter{r@tfl@t}{0}
\setcounter{parentequation}{0}
\setcounter{NAT@ctr}{0}
\setcounter{Item}{6}
\setcounter{Hfootnote}{0}
\setcounter{bookmark@seq@number}{21}
\setcounter{float@type}{4}
\setcounter{ContinuedFloat}{0}
\setcounter{section@level}{2}
}
