\relax 
\providecommand\hyper@newdestlabel[2]{}
\@writefile{toc}{\contentsline {chapter}{\numberline {4}Stakeholder and Conditions}{11}{chapter.4}}
\@writefile{lof}{\addvspace {10\p@ }}
\@writefile{lot}{\addvspace {10\p@ }}
\newlabel{vision-stakeholder-and-conditions}{{4}{11}{Stakeholder and Conditions}{chapter.4}{}}
\@writefile{toc}{\contentsline {section}{\numberline {4.1}Stakeholder Analysis}{11}{section.4.1}}
\@writefile{lot}{\contentsline {table}{\numberline {4.1}{\ignorespaces Stakeholder Analysis\relax }}{11}{table.caption.5}}
\newlabel{table:4.1}{{4.1}{11}{Stakeholder Analysis\relax }{table.caption.5}{}}
\@writefile{toc}{\contentsline {section}{\numberline {4.2}Regulatory Framework}{12}{section.4.2}}
\newlabel{sec:4.2}{{4.2}{12}{Regulatory Framework}{section.4.2}{}}
\@setckpt{vision-chap04}{
\setcounter{page}{13}
\setcounter{equation}{0}
\setcounter{enumi}{14}
\setcounter{enumii}{0}
\setcounter{enumiii}{0}
\setcounter{enumiv}{0}
\setcounter{footnote}{0}
\setcounter{mpfootnote}{0}
\setcounter{part}{0}
\setcounter{chapter}{4}
\setcounter{section}{2}
\setcounter{subsection}{0}
\setcounter{subsubsection}{0}
\setcounter{paragraph}{0}
\setcounter{subparagraph}{0}
\setcounter{figure}{0}
\setcounter{table}{1}
\setcounter{r@tfl@t}{0}
\setcounter{parentequation}{0}
\setcounter{NAT@ctr}{0}
\setcounter{Item}{14}
\setcounter{Hfootnote}{0}
\setcounter{bookmark@seq@number}{19}
\setcounter{float@type}{4}
\setcounter{ContinuedFloat}{0}
\setcounter{section@level}{1}
}
