\relax 
\providecommand\hyper@newdestlabel[2]{}
\@writefile{toc}{\contentsline {chapter}{\numberline {8}Guidelines and Standards}{20}{chapter.8}}
\@writefile{lof}{\addvspace {10\p@ }}
\@writefile{lot}{\addvspace {10\p@ }}
\newlabel{vision-documentation-requirements}{{8}{20}{Guidelines and Standards}{chapter.8}{}}
\@writefile{toc}{\contentsline {section}{\numberline {8.1}Documentation Requirements}{20}{section.8.1}}
\@writefile{toc}{\contentsline {section}{\numberline {8.2}Requirements for Quality Reviews}{21}{section.8.2}}
\@writefile{toc}{\contentsline {section}{\numberline {8.3}Requirements for Standards and Methods}{21}{section.8.3}}
\@writefile{toc}{\contentsline {section}{\numberline {8.4}Change Management}{21}{section.8.4}}
\@setckpt{vision-chap08}{
\setcounter{page}{23}
\setcounter{equation}{0}
\setcounter{enumi}{8}
\setcounter{enumii}{0}
\setcounter{enumiii}{0}
\setcounter{enumiv}{0}
\setcounter{footnote}{0}
\setcounter{mpfootnote}{0}
\setcounter{part}{0}
\setcounter{chapter}{8}
\setcounter{section}{4}
\setcounter{subsection}{0}
\setcounter{subsubsection}{0}
\setcounter{paragraph}{0}
\setcounter{subparagraph}{0}
\setcounter{figure}{0}
\setcounter{table}{0}
\setcounter{r@tfl@t}{0}
\setcounter{parentequation}{0}
\setcounter{NAT@ctr}{0}
\setcounter{Item}{34}
\setcounter{Hfootnote}{0}
\setcounter{bookmark@seq@number}{33}
\setcounter{float@type}{4}
\setcounter{ContinuedFloat}{0}
\setcounter{section@level}{1}
}
