\relax 
\providecommand\hyper@newdestlabel[2]{}
\@writefile{toc}{\contentsline {chapter}{\numberline {1}Introduction}{2}{chapter.1}}
\@writefile{lof}{\addvspace {10\p@ }}
\@writefile{lot}{\addvspace {10\p@ }}
\newlabel{vision-introduction}{{1}{2}{Introduction}{chapter.1}{}}
\@writefile{toc}{\contentsline {section}{\numberline {1.1}Purpose}{2}{section.1.1}}
\@writefile{toc}{\contentsline {section}{\numberline {1.2}Scope}{2}{section.1.2}}
\@writefile{toc}{\contentsline {section}{\numberline {1.3}Definitions, Acronyms, and Abbreviations}{3}{section.1.3}}
\@writefile{lot}{\contentsline {table}{\numberline {1.1}{\ignorespaces Definitions, Acronyms, and Abbreviations\relax }}{3}{table.caption.4}}
\newlabel{table:1.1}{{1.1}{3}{Definitions, Acronyms, and Abbreviations\relax }{table.caption.4}{}}
\@writefile{toc}{\contentsline {section}{\numberline {1.4}References}{3}{section.1.4}}
\newlabel{ref:1}{{1}{3}{References}{Item.1}{}}
\newlabel{ref:2}{{2}{3}{References}{Item.2}{}}
\newlabel{ref:3}{{3}{3}{References}{Item.3}{}}
\newlabel{ref:4}{{4}{3}{References}{Item.4}{}}
\newlabel{ref:5}{{5}{4}{References}{Item.5}{}}
\newlabel{ref:6}{{6}{4}{References}{Item.6}{}}
\newlabel{ref:7}{{7}{4}{References}{Item.7}{}}
\newlabel{ref:8}{{8}{4}{References}{Item.8}{}}
\newlabel{ref:9}{{9}{4}{References}{Item.9}{}}
\newlabel{ref:10}{{10}{4}{References}{Item.10}{}}
\newlabel{ref:11}{{11}{4}{References}{Item.11}{}}
\newlabel{ref:12}{{12}{4}{References}{Item.12}{}}
\newlabel{ref:13}{{13}{4}{References}{Item.13}{}}
\newlabel{ref:14}{{14}{4}{References}{Item.14}{}}
\@writefile{toc}{\contentsline {section}{\numberline {1.5}Overview}{4}{section.1.5}}
\@setckpt{vision-chap01}{
\setcounter{page}{6}
\setcounter{equation}{0}
\setcounter{enumi}{14}
\setcounter{enumii}{0}
\setcounter{enumiii}{0}
\setcounter{enumiv}{0}
\setcounter{footnote}{0}
\setcounter{mpfootnote}{0}
\setcounter{part}{0}
\setcounter{chapter}{1}
\setcounter{section}{5}
\setcounter{subsection}{0}
\setcounter{subsubsection}{0}
\setcounter{paragraph}{0}
\setcounter{subparagraph}{0}
\setcounter{figure}{0}
\setcounter{table}{1}
\setcounter{r@tfl@t}{0}
\setcounter{parentequation}{0}
\setcounter{NAT@ctr}{0}
\setcounter{Item}{14}
\setcounter{Hfootnote}{0}
\setcounter{bookmark@seq@number}{7}
\setcounter{float@type}{4}
\setcounter{ContinuedFloat}{0}
\setcounter{section@level}{1}
}
