\relax 
\providecommand\hyper@newdestlabel[2]{}
\@writefile{toc}{\contentsline {chapter}{\numberline {7}Cost/Benefit Analysis}{18}{chapter.7}}
\@writefile{lof}{\addvspace {10\p@ }}
\@writefile{lot}{\addvspace {10\p@ }}
\newlabel{vision-cost-benefit-analysis}{{7}{18}{Cost/Benefit Analysis}{chapter.7}{}}
\@writefile{toc}{\contentsline {section}{\numberline {7.1}Quantifiable and Non-quantifiable Benefits}{18}{section.7.1}}
\@writefile{toc}{\contentsline {section}{\numberline {7.2}Loss of Direct Costs}{19}{section.7.2}}
\@writefile{toc}{\contentsline {section}{\numberline {7.3}Estimated Costs}{19}{section.7.3}}
\newlabel{eq1}{{7.1}{19}{Estimated Costs}{equation.7.3.1}{}}
\newlabel{eq1}{{7.2}{19}{Estimated Costs}{equation.7.3.2}{}}
\@writefile{toc}{\contentsline {section}{\numberline {7.4}Compare Costs and Benefits}{19}{section.7.4}}
\@setckpt{vision-chap07}{
\setcounter{page}{20}
\setcounter{equation}{2}
\setcounter{enumi}{6}
\setcounter{enumii}{0}
\setcounter{enumiii}{0}
\setcounter{enumiv}{0}
\setcounter{footnote}{0}
\setcounter{mpfootnote}{0}
\setcounter{part}{0}
\setcounter{chapter}{7}
\setcounter{section}{4}
\setcounter{subsection}{0}
\setcounter{subsubsection}{0}
\setcounter{paragraph}{0}
\setcounter{subparagraph}{0}
\setcounter{figure}{0}
\setcounter{table}{0}
\setcounter{r@tfl@t}{0}
\setcounter{parentequation}{0}
\setcounter{NAT@ctr}{0}
\setcounter{Item}{26}
\setcounter{Hfootnote}{0}
\setcounter{bookmark@seq@number}{28}
\setcounter{float@type}{4}
\setcounter{ContinuedFloat}{0}
\setcounter{section@level}{1}
}
