\relax 
\providecommand\hyper@newdestlabel[2]{}
\@writefile{toc}{\contentsline {chapter}{\numberline {3}Project Goals}{8}{chapter.3}}
\@writefile{lof}{\addvspace {10\p@ }}
\@writefile{lot}{\addvspace {10\p@ }}
\newlabel{vision-project-goals}{{3}{8}{Project Goals}{chapter.3}{}}
\@writefile{toc}{\contentsline {section}{\numberline {3.1}Efficiency Goals}{8}{section.3.1}}
\@writefile{toc}{\contentsline {section}{\numberline {3.2}Result Goals}{8}{section.3.2}}
\@writefile{toc}{\contentsline {section}{\numberline {3.3}Process Goals}{9}{section.3.3}}
\@writefile{toc}{\contentsline {section}{\numberline {3.4}The Project Scope}{9}{section.3.4}}
\@writefile{toc}{\contentsline {section}{\numberline {3.5}Project Milestones and Main Activities}{10}{section.3.5}}
\@setckpt{vision-chap03}{
\setcounter{page}{11}
\setcounter{equation}{0}
\setcounter{enumi}{14}
\setcounter{enumii}{0}
\setcounter{enumiii}{0}
\setcounter{enumiv}{0}
\setcounter{footnote}{0}
\setcounter{mpfootnote}{0}
\setcounter{part}{0}
\setcounter{chapter}{3}
\setcounter{section}{5}
\setcounter{subsection}{0}
\setcounter{subsubsection}{0}
\setcounter{paragraph}{0}
\setcounter{subparagraph}{0}
\setcounter{figure}{0}
\setcounter{table}{0}
\setcounter{r@tfl@t}{0}
\setcounter{parentequation}{0}
\setcounter{NAT@ctr}{0}
\setcounter{Item}{14}
\setcounter{Hfootnote}{0}
\setcounter{bookmark@seq@number}{16}
\setcounter{float@type}{4}
\setcounter{ContinuedFloat}{0}
\setcounter{section@level}{1}
}
