\relax 
\providecommand\hyper@newdestlabel[2]{}
\providecommand\HyperFirstAtBeginDocument{\AtBeginDocument}
\HyperFirstAtBeginDocument{\ifx\hyper@anchor\@undefined
\global\let\oldcontentsline\contentsline
\gdef\contentsline#1#2#3#4{\oldcontentsline{#1}{#2}{#3}}
\global\let\oldnewlabel\newlabel
\gdef\newlabel#1#2{\newlabelxx{#1}#2}
\gdef\newlabelxx#1#2#3#4#5#6{\oldnewlabel{#1}{{#2}{#3}}}
\AtEndDocument{\ifx\hyper@anchor\@undefined
\let\contentsline\oldcontentsline
\let\newlabel\oldnewlabel
\fi}
\fi}
\global\let\hyper@last\relax 
\gdef\HyperFirstAtBeginDocument#1{#1}
\providecommand\HyField@AuxAddToFields[1]{}
\providecommand\HyField@AuxAddToCoFields[2]{}
\@input{vision-front.aux}
\@input{vision-revision-history.aux}
\@input{vision-chap01.aux}
\@input{vision-chap02.aux}
\@input{vision-chap03.aux}
\@input{vision-chap04.aux}
\@input{vision-chap05.aux}
\@input{vision-chap06.aux}
\@input{vision-chap07.aux}
\@input{vision-chap08.aux}
\@input{vision-chap09.aux}
\@input{vision-chap10.aux}
\@input{vision-appendixA.aux}
