\relax 
\providecommand\hyper@newdestlabel[2]{}
\@writefile{toc}{\contentsline {chapter}{\numberline {7}Week 6 | January 2016}{8}{chapter.7}}
\@writefile{lof}{\addvspace {10\p@ }}
\@writefile{lot}{\addvspace {10\p@ }}
\newlabel{weekreports-week06}{{7}{8}{Week 6 | January 2016}{chapter.7}{}}
\@writefile{lot}{\contentsline {table}{\numberline {7.1}{\ignorespaces Week Reports\relax }}{8}{table.caption.7}}
\newlabel{table:6}{{7.1}{8}{Week Reports\relax }{table.caption.7}{}}
\@setckpt{week06}{
\setcounter{page}{9}
\setcounter{equation}{0}
\setcounter{enumi}{0}
\setcounter{enumii}{0}
\setcounter{enumiii}{0}
\setcounter{enumiv}{0}
\setcounter{footnote}{0}
\setcounter{mpfootnote}{0}
\setcounter{part}{0}
\setcounter{chapter}{7}
\setcounter{section}{0}
\setcounter{subsection}{0}
\setcounter{subsubsection}{0}
\setcounter{paragraph}{0}
\setcounter{subparagraph}{0}
\setcounter{figure}{0}
\setcounter{table}{1}
\setcounter{r@tfl@t}{0}
\setcounter{parentequation}{0}
\setcounter{NAT@ctr}{0}
\setcounter{Item}{0}
\setcounter{Hfootnote}{0}
\setcounter{bookmark@seq@number}{7}
\setcounter{float@type}{4}
\setcounter{ContinuedFloat}{0}
\setcounter{section@level}{0}
}
