\BOOKMARK [0][-]{chapter.1}{Summary}{}% 1
\BOOKMARK [0][-]{chapter.2}{Week 1 | January 2016}{}% 2
\BOOKMARK [0][-]{chapter.3}{Week 2 | January 2016}{}% 3
\BOOKMARK [0][-]{chapter.4}{Week 3 | January 2016}{}% 4
\BOOKMARK [0][-]{chapter.5}{Week 4 | January 2016}{}% 5
\BOOKMARK [0][-]{chapter.6}{Week 5 | January 2016}{}% 6
\BOOKMARK [0][-]{chapter.7}{Week 6 | January 2016}{}% 7
\BOOKMARK [0][-]{chapter.8}{Week 7 | January 2016}{}% 8
\BOOKMARK [0][-]{chapter.9}{Week 7 | January 2016}{}% 9
