\relax 
\providecommand\hyper@newdestlabel[2]{}
\providecommand\HyperFirstAtBeginDocument{\AtBeginDocument}
\HyperFirstAtBeginDocument{\ifx\hyper@anchor\@undefined
\global\let\oldcontentsline\contentsline
\gdef\contentsline#1#2#3#4{\oldcontentsline{#1}{#2}{#3}}
\global\let\oldnewlabel\newlabel
\gdef\newlabel#1#2{\newlabelxx{#1}#2}
\gdef\newlabelxx#1#2#3#4#5#6{\oldnewlabel{#1}{{#2}{#3}}}
\AtEndDocument{\ifx\hyper@anchor\@undefined
\let\contentsline\oldcontentsline
\let\newlabel\oldnewlabel
\fi}
\fi}
\global\let\hyper@last\relax 
\gdef\HyperFirstAtBeginDocument#1{#1}
\providecommand\HyField@AuxAddToFields[1]{}
\providecommand\HyField@AuxAddToCoFields[2]{}
\@input{weekreports-front.aux}
\@input{summary.aux}
\@input{week01.aux}
\@input{week02.aux}
\@input{week03.aux}
\@input{week04.aux}
\@input{week05.aux}
\@input{week06.aux}
\@input{week07.aux}
\@input{week08.aux}
\@input{week09.aux}
\@input{week10.aux}
\@input{week11.aux}
\@input{week12.aux}
\@input{week13.aux}
\@input{week14.aux}
\@input{week15.aux}
\@input{week16.aux}
\@input{week17.aux}
\@input{week18.aux}
\@input{week19.aux}
\@input{week20.aux}
\@input{week21.aux}
\@input{week22.aux}
