\contentsline {chapter}{\numberline {1}Summary}{2}{chapter.1}
\contentsline {chapter}{\numberline {2}Week 1 | January 2016}{3}{chapter.2}
\contentsline {chapter}{\numberline {3}Week 2 | January 2016}{4}{chapter.3}
\contentsline {chapter}{\numberline {4}Week 3 | January 2016}{5}{chapter.4}
\contentsline {chapter}{\numberline {5}Week 4 | January 2016}{6}{chapter.5}
\contentsline {chapter}{\numberline {6}Week 5 | January 2016}{7}{chapter.6}
\contentsline {chapter}{\numberline {7}Week 6 | January 2016}{8}{chapter.7}
\contentsline {chapter}{\numberline {8}Week 7 | January 2016}{9}{chapter.8}
\contentsline {chapter}{\numberline {9}Week 7 | January 2016}{10}{chapter.9}
