\contentsline {chapter}{\numberline {1}Summary}{2}{chapter.1}
\contentsline {chapter}{\numberline {2}Week 1 | January 2016}{3}{chapter.2}
\contentsline {chapter}{\numberline {3}Week 2 | January 2016}{4}{chapter.3}
\contentsline {chapter}{\numberline {4}Week 3 | January 2016}{5}{chapter.4}
\contentsline {chapter}{\numberline {5}Week 4 | January 2016}{6}{chapter.5}
\contentsline {chapter}{\numberline {6}Week 5 | February 2016}{7}{chapter.6}
\contentsline {chapter}{\numberline {7}Week 6 | February 2016}{8}{chapter.7}
\contentsline {chapter}{\numberline {8}Week 7 | February 2016}{9}{chapter.8}
\contentsline {chapter}{\numberline {9}Week 8 | February 2016}{10}{chapter.9}
\contentsline {chapter}{\numberline {10}Week 9 | February / March 2016}{11}{chapter.10}
\contentsline {chapter}{\numberline {11}Week 10 | March 2016}{12}{chapter.11}
\contentsline {chapter}{\numberline {12}Week 11 | March 2016}{13}{chapter.12}
\contentsline {chapter}{\numberline {13}Week 12 | March 2016}{14}{chapter.13}
\contentsline {chapter}{\numberline {14}Week 13 | March / April 2016}{15}{chapter.14}
\contentsline {chapter}{\numberline {15}Week 14 | April 2016}{16}{chapter.15}
\contentsline {chapter}{\numberline {16}Week 15 | April 2016}{17}{chapter.16}
\contentsline {chapter}{\numberline {17}Week 16 | April 2016}{18}{chapter.17}
\contentsline {chapter}{\numberline {18}Week 17 | April / May 2016}{19}{chapter.18}
\contentsline {chapter}{\numberline {19}Week 18 | May 2016}{20}{chapter.19}
\contentsline {chapter}{\numberline {20}Week 19 | May 2016}{21}{chapter.20}
\contentsline {chapter}{\numberline {21}Week 20 | May 2016}{22}{chapter.21}
\contentsline {chapter}{\numberline {22}Week 21 | May 2016}{23}{chapter.22}
\contentsline {chapter}{\numberline {23}Week 22 | May / June 2016}{24}{chapter.23}
