\relax 
\providecommand\hyper@newdestlabel[2]{}
\@writefile{toc}{\contentsline {chapter}{\numberline {18}Week 17 | April / May 2016}{19}{chapter.18}}
\@writefile{lof}{\addvspace {10\p@ }}
\@writefile{lot}{\addvspace {10\p@ }}
\newlabel{timesheet-week17}{{18}{19}{Week 17 | April / May 2016}{chapter.18}{}}
\newlabel{timesheet-week17-hours}{{18}{19}{Week 17 | April / May 2016}{chapter.18}{}}
\@writefile{lot}{\contentsline {table}{\numberline {18.1}{\ignorespaces Hour Report and Task Report\relax }}{19}{table.caption.18}}
\newlabel{table:17}{{18.1}{19}{Hour Report and Task Report\relax }{table.caption.18}{}}
\@setckpt{week17}{
\setcounter{page}{20}
\setcounter{equation}{0}
\setcounter{enumi}{0}
\setcounter{enumii}{0}
\setcounter{enumiii}{0}
\setcounter{enumiv}{0}
\setcounter{footnote}{0}
\setcounter{mpfootnote}{0}
\setcounter{part}{0}
\setcounter{chapter}{18}
\setcounter{section}{0}
\setcounter{subsection}{0}
\setcounter{subsubsection}{0}
\setcounter{paragraph}{0}
\setcounter{subparagraph}{0}
\setcounter{figure}{0}
\setcounter{table}{1}
\setcounter{r@tfl@t}{0}
\setcounter{parentequation}{0}
\setcounter{NAT@ctr}{0}
\setcounter{Item}{0}
\setcounter{Hfootnote}{0}
\setcounter{bookmark@seq@number}{18}
\setcounter{float@type}{4}
\setcounter{ContinuedFloat}{0}
\setcounter{section@level}{0}
}
