\relax 
\providecommand\hyper@newdestlabel[2]{}
\@writefile{toc}{\contentsline {chapter}{\numberline {11}Week 10 | March 2016}{12}{chapter.11}}
\@writefile{lof}{\addvspace {10\p@ }}
\@writefile{lot}{\addvspace {10\p@ }}
\newlabel{timesheet-week10}{{11}{12}{Week 10 | March 2016}{chapter.11}{}}
\newlabel{timesheet-week10-hours}{{11}{12}{Week 10 | March 2016}{chapter.11}{}}
\@writefile{lot}{\contentsline {table}{\numberline {11.1}{\ignorespaces Hour Report and Task Report\relax }}{12}{table.caption.11}}
\newlabel{table:10}{{11.1}{12}{Hour Report and Task Report\relax }{table.caption.11}{}}
\@setckpt{week10}{
\setcounter{page}{13}
\setcounter{equation}{0}
\setcounter{enumi}{0}
\setcounter{enumii}{0}
\setcounter{enumiii}{0}
\setcounter{enumiv}{0}
\setcounter{footnote}{0}
\setcounter{mpfootnote}{0}
\setcounter{part}{0}
\setcounter{chapter}{11}
\setcounter{section}{0}
\setcounter{subsection}{0}
\setcounter{subsubsection}{0}
\setcounter{paragraph}{0}
\setcounter{subparagraph}{0}
\setcounter{figure}{0}
\setcounter{table}{1}
\setcounter{r@tfl@t}{0}
\setcounter{parentequation}{0}
\setcounter{NAT@ctr}{0}
\setcounter{Item}{0}
\setcounter{Hfootnote}{0}
\setcounter{bookmark@seq@number}{11}
\setcounter{float@type}{4}
\setcounter{ContinuedFloat}{0}
\setcounter{section@level}{0}
}
