\relax 
\providecommand\hyper@newdestlabel[2]{}
\@writefile{toc}{\contentsline {chapter}{\numberline {17}Week 16 | April 2016}{18}{chapter.17}}
\@writefile{lof}{\addvspace {10\p@ }}
\@writefile{lot}{\addvspace {10\p@ }}
\newlabel{timesheet-week16}{{17}{18}{Week 16 | April 2016}{chapter.17}{}}
\newlabel{timesheet-week16-hours}{{17}{18}{Week 16 | April 2016}{chapter.17}{}}
\@writefile{lot}{\contentsline {table}{\numberline {17.1}{\ignorespaces Hour Report and Task Report\relax }}{18}{table.caption.17}}
\newlabel{table:16}{{17.1}{18}{Hour Report and Task Report\relax }{table.caption.17}{}}
\@setckpt{week16}{
\setcounter{page}{19}
\setcounter{equation}{0}
\setcounter{enumi}{0}
\setcounter{enumii}{0}
\setcounter{enumiii}{0}
\setcounter{enumiv}{0}
\setcounter{footnote}{0}
\setcounter{mpfootnote}{0}
\setcounter{part}{0}
\setcounter{chapter}{17}
\setcounter{section}{0}
\setcounter{subsection}{0}
\setcounter{subsubsection}{0}
\setcounter{paragraph}{0}
\setcounter{subparagraph}{0}
\setcounter{figure}{0}
\setcounter{table}{1}
\setcounter{r@tfl@t}{0}
\setcounter{parentequation}{0}
\setcounter{NAT@ctr}{0}
\setcounter{Item}{0}
\setcounter{Hfootnote}{0}
\setcounter{bookmark@seq@number}{17}
\setcounter{float@type}{4}
\setcounter{ContinuedFloat}{0}
\setcounter{section@level}{0}
}
