\relax 
\providecommand\hyper@newdestlabel[2]{}
\@writefile{toc}{\contentsline {chapter}{\numberline {22}Week 21 | May 2016}{23}{chapter.22}}
\@writefile{lof}{\addvspace {10\p@ }}
\@writefile{lot}{\addvspace {10\p@ }}
\newlabel{timesheet-week21}{{22}{23}{Week 21 | May 2016}{chapter.22}{}}
\newlabel{timesheet-week21-hours}{{22}{23}{Week 21 | May 2016}{chapter.22}{}}
\@writefile{lot}{\contentsline {table}{\numberline {22.1}{\ignorespaces Hour Report and Task Report\relax }}{23}{table.caption.22}}
\newlabel{table:21}{{22.1}{23}{Hour Report and Task Report\relax }{table.caption.22}{}}
\@setckpt{week21}{
\setcounter{page}{24}
\setcounter{equation}{0}
\setcounter{enumi}{0}
\setcounter{enumii}{0}
\setcounter{enumiii}{0}
\setcounter{enumiv}{0}
\setcounter{footnote}{0}
\setcounter{mpfootnote}{0}
\setcounter{part}{0}
\setcounter{chapter}{22}
\setcounter{section}{0}
\setcounter{subsection}{0}
\setcounter{subsubsection}{0}
\setcounter{paragraph}{0}
\setcounter{subparagraph}{0}
\setcounter{figure}{0}
\setcounter{table}{1}
\setcounter{r@tfl@t}{0}
\setcounter{parentequation}{0}
\setcounter{NAT@ctr}{0}
\setcounter{Item}{0}
\setcounter{Hfootnote}{0}
\setcounter{bookmark@seq@number}{22}
\setcounter{float@type}{4}
\setcounter{ContinuedFloat}{0}
\setcounter{section@level}{0}
}
