\relax 
\providecommand\hyper@newdestlabel[2]{}
\@writefile{toc}{\contentsline {chapter}{\numberline {12}Week 11 | March 2016}{13}{chapter.12}}
\@writefile{lof}{\addvspace {10\p@ }}
\@writefile{lot}{\addvspace {10\p@ }}
\newlabel{timesheet-week11}{{12}{13}{Week 11 | March 2016}{chapter.12}{}}
\newlabel{timesheet-week11-hours}{{12}{13}{Week 11 | March 2016}{chapter.12}{}}
\@writefile{lot}{\contentsline {table}{\numberline {12.1}{\ignorespaces Hour Report and Task Report\relax }}{13}{table.caption.12}}
\newlabel{table:11}{{12.1}{13}{Hour Report and Task Report\relax }{table.caption.12}{}}
\@setckpt{week11}{
\setcounter{page}{14}
\setcounter{equation}{0}
\setcounter{enumi}{0}
\setcounter{enumii}{0}
\setcounter{enumiii}{0}
\setcounter{enumiv}{0}
\setcounter{footnote}{0}
\setcounter{mpfootnote}{0}
\setcounter{part}{0}
\setcounter{chapter}{12}
\setcounter{section}{0}
\setcounter{subsection}{0}
\setcounter{subsubsection}{0}
\setcounter{paragraph}{0}
\setcounter{subparagraph}{0}
\setcounter{figure}{0}
\setcounter{table}{1}
\setcounter{r@tfl@t}{0}
\setcounter{parentequation}{0}
\setcounter{NAT@ctr}{0}
\setcounter{Item}{0}
\setcounter{Hfootnote}{0}
\setcounter{bookmark@seq@number}{12}
\setcounter{float@type}{4}
\setcounter{ContinuedFloat}{0}
\setcounter{section@level}{0}
}
