\relax 
\providecommand\hyper@newdestlabel[2]{}
\@writefile{toc}{\contentsline {chapter}{\numberline {13}Week 12 | March 2016}{14}{chapter.13}}
\@writefile{lof}{\addvspace {10\p@ }}
\@writefile{lot}{\addvspace {10\p@ }}
\newlabel{timesheet-week12}{{13}{14}{Week 12 | March 2016}{chapter.13}{}}
\newlabel{timesheet-week12-hours}{{13}{14}{Week 12 | March 2016}{chapter.13}{}}
\@writefile{lot}{\contentsline {table}{\numberline {13.1}{\ignorespaces Hour Report and Task Report\relax }}{14}{table.caption.13}}
\newlabel{table:12}{{13.1}{14}{Hour Report and Task Report\relax }{table.caption.13}{}}
\@setckpt{week12}{
\setcounter{page}{15}
\setcounter{equation}{0}
\setcounter{enumi}{0}
\setcounter{enumii}{0}
\setcounter{enumiii}{0}
\setcounter{enumiv}{0}
\setcounter{footnote}{0}
\setcounter{mpfootnote}{0}
\setcounter{part}{0}
\setcounter{chapter}{13}
\setcounter{section}{0}
\setcounter{subsection}{0}
\setcounter{subsubsection}{0}
\setcounter{paragraph}{0}
\setcounter{subparagraph}{0}
\setcounter{figure}{0}
\setcounter{table}{1}
\setcounter{r@tfl@t}{0}
\setcounter{parentequation}{0}
\setcounter{NAT@ctr}{0}
\setcounter{Item}{0}
\setcounter{Hfootnote}{0}
\setcounter{bookmark@seq@number}{13}
\setcounter{float@type}{4}
\setcounter{ContinuedFloat}{0}
\setcounter{section@level}{0}
}
