\relax 
\providecommand\hyper@newdestlabel[2]{}
\@writefile{toc}{\contentsline {chapter}{\numberline {23}Week 22 | May / June 2016}{24}{chapter.23}}
\@writefile{lof}{\addvspace {10\p@ }}
\@writefile{lot}{\addvspace {10\p@ }}
\newlabel{timesheet-week21}{{23}{24}{Week 22 | May / June 2016}{chapter.23}{}}
\newlabel{timesheet-week22-hours}{{23}{24}{Week 22 | May / June 2016}{chapter.23}{}}
\@writefile{lot}{\contentsline {table}{\numberline {23.1}{\ignorespaces Hour Report and Task Report\relax }}{24}{table.caption.23}}
\newlabel{table:22}{{23.1}{24}{Hour Report and Task Report\relax }{table.caption.23}{}}
\@setckpt{week22}{
\setcounter{page}{25}
\setcounter{equation}{0}
\setcounter{enumi}{0}
\setcounter{enumii}{0}
\setcounter{enumiii}{0}
\setcounter{enumiv}{0}
\setcounter{footnote}{0}
\setcounter{mpfootnote}{0}
\setcounter{part}{0}
\setcounter{chapter}{23}
\setcounter{section}{0}
\setcounter{subsection}{0}
\setcounter{subsubsection}{0}
\setcounter{paragraph}{0}
\setcounter{subparagraph}{0}
\setcounter{figure}{0}
\setcounter{table}{1}
\setcounter{r@tfl@t}{0}
\setcounter{parentequation}{0}
\setcounter{NAT@ctr}{0}
\setcounter{Item}{0}
\setcounter{Hfootnote}{0}
\setcounter{bookmark@seq@number}{23}
\setcounter{float@type}{4}
\setcounter{ContinuedFloat}{0}
\setcounter{section@level}{0}
}
